{
"skeleton": { "hash": "HcS+isFbQ7dFBw8YF0Q1n3HzuhU", "spine": "3.6.53", "width": 785.51, "height": 488, "images": "./Sprites/" },
"bones": [
	{ "name": "root" },
	{ "name": "bone", "parent": "root", "x": 522, "y": -1.23 },
	{ "name": "medbox", "parent": "root", "x": 3.16, "y": 130.55 }
],
"slots": [
	{ "name": "medbox_inside", "bone": "medbox", "attachment": "medbox_inside" },
	{ "name": "medbox_door", "bone": "medbox", "attachment": "medbox_door" },
	{ "name": "med_station", "bone": "bone", "attachment": "med_station" },
	{ "name": "med_station_light", "bone": "bone", "attachment": "med_station_light" }
],
"skins": {
	"default": {
		"med_station": {
			"med_station": { "x": -4.08, "y": 250.02, "width": 311, "height": 488 }
		},
		"med_station_light": {
			"med_station_light": { "x": -2.58, "y": 443.02, "width": 88, "height": 88 }
		},
		"medbox_door": {
			"medbox_door": {
				"type": "mesh",
				"uvs": [ 1, 1, 0, 1, 0, 0, 1, 0 ],
				"triangles": [ 1, 2, 3, 1, 3, 0 ],
				"vertices": [ 120.75, -117.26, -115.25, -117.26, -115.25, 121.74, 120.75, 121.74 ],
				"hull": 4,
				"edges": [ 0, 2, 2, 4, 4, 6, 0, 6 ],
				"width": 236,
				"height": 239
			}
		},
		"medbox_inside": {
			"medbox_inside": { "x": 2.75, "y": 2.24, "width": 236, "height": 239 }
		}
	}
},
"animations": {
	"medbox_closing": {
		"slots": {
			"med_station": {
				"attachment": [
					{ "time": 0, "name": null }
				]
			},
			"med_station_light": {
				"attachment": [
					{ "time": 0, "name": null }
				]
			},
			"medbox_door": {
				"color": [
					{ "time": 0, "color": "000000ff", "curve": "stepped" },
					{ "time": 0.1, "color": "000000ff" },
					{ "time": 0.1333, "color": "ffffffff", "curve": "stepped" },
					{ "time": 0.2667, "color": "ffffffff" }
				]
			}
		},
		"bones": {
			"root": {
				"rotate": [
					{ "time": 0, "angle": 0, "curve": "stepped" },
					{ "time": 0.2667, "angle": 0 }
				],
				"translate": [
					{ "time": 0, "x": 0, "y": 0, "curve": "stepped" },
					{ "time": 0.2667, "x": 0, "y": 0 }
				],
				"scale": [
					{ "time": 0, "x": 1, "y": 1, "curve": "stepped" },
					{ "time": 0.2667, "x": 1, "y": 1 }
				],
				"shear": [
					{ "time": 0, "x": 0, "y": 0, "curve": "stepped" },
					{ "time": 0.2667, "x": 0, "y": 0 }
				]
			},
			"medbox": {
				"rotate": [
					{ "time": 0, "angle": 0, "curve": "stepped" },
					{ "time": 0.2667, "angle": 0 }
				],
				"translate": [
					{ "time": 0, "x": 0, "y": 0, "curve": "stepped" },
					{ "time": 0.2667, "x": 0, "y": 0 }
				],
				"scale": [
					{ "time": 0, "x": 1, "y": 1, "curve": "stepped" },
					{ "time": 0.2667, "x": 1, "y": 1 }
				],
				"shear": [
					{ "time": 0, "x": 0, "y": 0, "curve": "stepped" },
					{ "time": 0.2667, "x": 0, "y": 0 }
				]
			}
		},
		"deform": {
			"default": {
				"medbox_door": {
					"medbox_door": [
						{
							"time": 0,
							"vertices": [ -354.48584, -31.11902, 2.70605, 0, 2.70605, 0, -354.48584, 29.76599 ]
						},
						{
							"time": 0.1333,
							"vertices": [ -212.69151, -57.90835, 1.62363, 0, 1.62363, 0, -212.69151, 44.91965 ]
						},
						{ "time": 0.2667 }
					]
				}
			}
		}
	},
	"medbox_off": {
		"slots": {
			"med_station": {
				"attachment": [
					{ "time": 0, "name": null },
					{ "time": 0.1667, "name": null }
				]
			},
			"med_station_light": {
				"attachment": [
					{ "time": 0, "name": null }
				]
			},
			"medbox_door": {
				"color": [
					{ "time": 0, "color": "000000ff", "curve": "stepped" },
					{ "time": 0.1667, "color": "000000ff" }
				]
			}
		},
		"bones": {
			"medbox": {
				"rotate": [
					{ "time": 0, "angle": 0, "curve": "stepped" },
					{ "time": 0.1667, "angle": 0 }
				],
				"translate": [
					{ "time": 0, "x": 0, "y": 0, "curve": "stepped" },
					{ "time": 0.1667, "x": 0, "y": 0 }
				],
				"scale": [
					{ "time": 0, "x": 1, "y": 1, "curve": "stepped" },
					{ "time": 0.1667, "x": 1, "y": 1 }
				],
				"shear": [
					{ "time": 0, "x": 0, "y": 0, "curve": "stepped" },
					{ "time": 0.1667, "x": 0, "y": 0 }
				]
			},
			"root": {
				"rotate": [
					{ "time": 0, "angle": 0, "curve": "stepped" },
					{ "time": 0.1667, "angle": 0 }
				],
				"translate": [
					{ "time": 0, "x": 0, "y": 0, "curve": "stepped" },
					{ "time": 0.1667, "x": 0, "y": 0 }
				],
				"scale": [
					{ "time": 0, "x": 1, "y": 1, "curve": "stepped" },
					{ "time": 0.1667, "x": 1, "y": 1 }
				],
				"shear": [
					{ "time": 0, "x": 0, "y": 0, "curve": "stepped" },
					{ "time": 0.1667, "x": 0, "y": 0 }
				]
			}
		},
		"deform": {
			"default": {
				"medbox_door": {
					"medbox_door": [
						{
							"time": 0,
							"vertices": [ -354.48584, -31.11902, 2.70605, 0, 2.70605, 0, -354.48584, 29.76599 ],
							"curve": "stepped"
						},
						{
							"time": 0.1667,
							"vertices": [ -354.48584, -31.11902, 2.70605, 0, 2.70605, 0, -354.48584, 29.76599 ]
						}
					]
				}
			}
		}
	},
	"medbox_on": {
		"slots": {
			"med_station": {
				"attachment": [
					{ "time": 0, "name": null }
				]
			},
			"med_station_light": {
				"attachment": [
					{ "time": 0, "name": null }
				]
			}
		}
	},
	"medbox_opening": {
		"slots": {
			"med_station": {
				"attachment": [
					{ "time": 0, "name": null }
				]
			},
			"med_station_light": {
				"attachment": [
					{ "time": 0, "name": null }
				]
			},
			"medbox_door": {
				"color": [
					{ "time": 0, "color": "ffffffff", "curve": "stepped" },
					{ "time": 0.1333, "color": "ffffffff" },
					{ "time": 0.1667, "color": "000000ff", "curve": "stepped" },
					{ "time": 0.2667, "color": "000000ff" }
				]
			}
		},
		"bones": {
			"root": {
				"rotate": [
					{ "time": 0, "angle": 0, "curve": "stepped" },
					{ "time": 0.2667, "angle": 0 }
				],
				"translate": [
					{ "time": 0, "x": 0, "y": 0, "curve": "stepped" },
					{ "time": 0.2667, "x": 0, "y": 0 }
				],
				"scale": [
					{ "time": 0, "x": 1, "y": 1, "curve": "stepped" },
					{ "time": 0.2667, "x": 1, "y": 1 }
				],
				"shear": [
					{ "time": 0, "x": 0, "y": 0, "curve": "stepped" },
					{ "time": 0.2667, "x": 0, "y": 0 }
				]
			},
			"medbox": {
				"rotate": [
					{ "time": 0, "angle": 0, "curve": "stepped" },
					{ "time": 0.2667, "angle": 0 }
				],
				"translate": [
					{ "time": 0, "x": 0, "y": 0, "curve": "stepped" },
					{ "time": 0.2667, "x": 0, "y": 0 }
				],
				"scale": [
					{ "time": 0, "x": 1, "y": 1, "curve": "stepped" },
					{ "time": 0.2667, "x": 1, "y": 1 }
				],
				"shear": [
					{ "time": 0, "x": 0, "y": 0, "curve": "stepped" },
					{ "time": 0.2667, "x": 0, "y": 0 }
				]
			}
		},
		"deform": {
			"default": {
				"medbox_door": {
					"medbox_door": [
						{ "time": 0 },
						{
							"time": 0.1333,
							"vertices": [ -212.69151, -57.90835, 1.62363, 0, 1.62363, 0, -212.69151, 44.91965 ]
						},
						{
							"time": 0.2667,
							"vertices": [ -354.48584, -31.11902, 2.70605, 0, 2.70605, 0, -354.48584, 29.76599 ]
						}
					]
				}
			}
		}
	},
	"medstation_off": {
		"slots": {
			"med_station": {
				"attachment": [
					{ "time": 0, "name": "med_station" },
					{ "time": 0.6667, "name": "med_station" }
				]
			},
			"med_station_light": {
				"color": [
					{ "time": 0, "color": "ffffffff" },
					{ "time": 0.2, "color": "ffffff00", "curve": "stepped" },
					{ "time": 0.4667, "color": "ffffff00" },
					{ "time": 0.6667, "color": "ffffffff" }
				]
			},
			"medbox_door": {
				"attachment": [
					{ "time": 0, "name": null }
				]
			},
			"medbox_inside": {
				"attachment": [
					{ "time": 0, "name": null }
				]
			}
		},
		"bones": {
			"bone": {
				"rotate": [
					{ "time": 0, "angle": 0, "curve": "stepped" },
					{ "time": 0.6667, "angle": 0 }
				],
				"translate": [
					{ "time": 0, "x": -519.75, "y": 0, "curve": "stepped" },
					{ "time": 0.6667, "x": -519.75, "y": 0 }
				],
				"scale": [
					{ "time": 0, "x": 1, "y": 1, "curve": "stepped" },
					{ "time": 0.6667, "x": 1, "y": 1 }
				],
				"shear": [
					{ "time": 0, "x": 0, "y": 0, "curve": "stepped" },
					{ "time": 0.6667, "x": 0, "y": 0 }
				]
			}
		}
	},
	"medstation_on": {
		"slots": {
			"med_station": {
				"attachment": [
					{ "time": 0, "name": "med_station" },
					{ "time": 0.1667, "name": "med_station" }
				]
			},
			"medbox_door": {
				"attachment": [
					{ "time": 0, "name": null }
				]
			},
			"medbox_inside": {
				"attachment": [
					{ "time": 0, "name": null }
				]
			}
		},
		"bones": {
			"bone": {
				"rotate": [
					{ "time": 0, "angle": 0, "curve": "stepped" },
					{ "time": 0.1667, "angle": 0 }
				],
				"translate": [
					{ "time": 0, "x": -519.75, "y": 0, "curve": "stepped" },
					{ "time": 0.1667, "x": -519.75, "y": 0 }
				],
				"scale": [
					{ "time": 0, "x": 1, "y": 1, "curve": "stepped" },
					{ "time": 0.1667, "x": 1, "y": 1 }
				],
				"shear": [
					{ "time": 0, "x": 0, "y": 0, "curve": "stepped" },
					{ "time": 0.1667, "x": 0, "y": 0 }
				]
			}
		}
	}
}
}