{
"skeleton": { "hash": "fXYzsCsbp/uAizdRcGQUiBAGzsY", "spine": "3.6.53", "width": 1010.72, "height": 574.01, "images": "./Sprites/" },
"bones": [
	{ "name": "root" },
	{ "name": "room", "parent": "root", "x": 25.92, "y": 322.51 },
	{ "name": "bone2", "parent": "room", "length": 142.89, "rotation": -89.25, "x": 472.29, "y": 38.58, "scaleX": 1.762 },
	{ "name": "bone3", "parent": "room", "length": 142.89, "rotation": -89.25, "x": -498.69, "y": 40.5, "scaleX": 1.741 },
	{ "name": "heart", "parent": "root", "x": 2.38, "y": 31.39 },
	{ "name": "heart2", "parent": "heart", "x": -58.51, "y": 35.77 },
	{ "name": "heart3", "parent": "heart", "x": -194.86, "y": 37.59 },
	{ "name": "heart4", "parent": "heart", "x": -329.4, "y": 36.68 },
	{ "name": "heart5", "parent": "heart", "x": 72.22, "y": 35.77 },
	{ "name": "heart6", "parent": "heart", "x": 207.66, "y": 36.68 },
	{ "name": "heart7", "parent": "heart", "x": 331.56, "y": 36.68 }
],
"slots": [
	{ "name": "room_bg_blue", "bone": "room", "attachment": "room_bg_blue" },
	{ "name": "room_bg_off", "bone": "room", "attachment": "room_bg_off" },
	{ "name": "room_door_single", "bone": "room", "attachment": "room_door_double" },
	{ "name": "room_door", "bone": "bone2", "attachment": "room_door" },
	{ "name": "room_door3", "bone": "bone3", "attachment": "room_door" },
	{ "name": "room_heart", "bone": "heart2", "attachment": "room_heart" },
	{ "name": "room_heart2", "bone": "heart3", "attachment": "room_heart" },
	{ "name": "room_heart5", "bone": "heart4", "attachment": "room_heart" },
	{ "name": "room_heart3", "bone": "heart5", "attachment": "room_heart" },
	{ "name": "room_heart4", "bone": "heart6", "attachment": "room_heart" },
	{ "name": "room_heart6", "bone": "heart7", "attachment": "room_heart" }
],
"skins": {
	"default": {
		"room_bg_blue": {
			"room_bg_blue": { "color": "ffffff87", "x": -10.64, "y": -18.42, "width": 1008, "height": 574 }
		},
		"room_bg_off": {
			"room_bg_off": { "color": "ffffff73", "x": -10.64, "y": -18.42, "width": 1008, "height": 574 }
		},
		"room_door": {
			"room_door": { "x": 76.49, "y": 1.33, "scaleY": 0.541, "rotation": 89.25, "width": 38, "height": 290 }
		},
		"room_door3": {
			"room_door": { "x": 76.49, "y": 1.17, "scaleY": 0.541, "rotation": 89.25, "width": 38, "height": 290 }
		},
		"room_door_single": {
			"room_door_double": { "x": -10.39, "y": -18.41, "width": 1008, "height": 574 },
			"room_door_single": { "x": -10.39, "y": -18.42, "width": 1008, "height": 574 }
		},
		"room_heart": {
			"room_heart": { "x": -1.36, "y": 0.42, "width": 71, "height": 63 }
		},
		"room_heart2": {
			"room_heart": { "x": 0.6, "y": -1.4, "width": 71, "height": 63 }
		},
		"room_heart3": {
			"room_heart": { "x": -1.99, "y": 0.42, "width": 71, "height": 63 }
		},
		"room_heart4": {
			"room_heart": { "x": -1.46, "y": -0.49, "width": 71, "height": 63 }
		},
		"room_heart5": {
			"room_heart": { "x": -0.83, "y": -0.49, "width": 71, "height": 63 }
		},
		"room_heart6": {
			"room_heart": { "x": -1.46, "y": -0.49, "width": 71, "height": 63 }
		}
	}
},
"animations": {
	"hearts_off_start": {
		"slots": {
			"room_bg_blue": {
				"attachment": [
					{ "time": 0, "name": null },
					{ "time": 0.1667, "name": null },
					{ "time": 0.3333, "name": null },
					{ "time": 0.5, "name": null },
					{ "time": 0.6667, "name": null },
					{ "time": 0.8333, "name": null },
					{ "time": 1, "name": null }
				]
			},
			"room_bg_off": {
				"attachment": [
					{ "time": 0, "name": null },
					{ "time": 0.1667, "name": null },
					{ "time": 0.3333, "name": null },
					{ "time": 0.5, "name": null },
					{ "time": 0.6667, "name": null },
					{ "time": 0.8333, "name": null },
					{ "time": 1, "name": null }
				]
			},
			"room_door": {
				"attachment": [
					{ "time": 0, "name": null },
					{ "time": 0.1667, "name": null },
					{ "time": 0.3333, "name": null },
					{ "time": 0.5, "name": null },
					{ "time": 0.6667, "name": null },
					{ "time": 0.8333, "name": null },
					{ "time": 1, "name": null }
				]
			},
			"room_door3": {
				"attachment": [
					{ "time": 0, "name": null },
					{ "time": 0.1667, "name": null },
					{ "time": 0.3333, "name": null },
					{ "time": 0.5, "name": null },
					{ "time": 0.6667, "name": null },
					{ "time": 0.8333, "name": null },
					{ "time": 1, "name": null }
				]
			},
			"room_door_single": {
				"attachment": [
					{ "time": 0, "name": null },
					{ "time": 0.1667, "name": null },
					{ "time": 0.3333, "name": null },
					{ "time": 0.5, "name": null },
					{ "time": 0.6667, "name": null },
					{ "time": 0.8333, "name": null },
					{ "time": 1, "name": null }
				]
			},
			"room_heart": {
				"color": [
					{ "time": 0, "color": "ff0000ff" },
					{ "time": 0.0667, "color": "ff000000" },
					{ "time": 0.1667, "color": "ff0000ff" },
					{ "time": 0.2333, "color": "ff000000" },
					{ "time": 0.3333, "color": "ff0000ff" },
					{ "time": 0.4, "color": "ff000000" },
					{ "time": 0.5, "color": "ff0000ff" },
					{ "time": 0.5667, "color": "ff000000" },
					{ "time": 0.6667, "color": "ff0000ff" },
					{ "time": 0.7333, "color": "ff000000" },
					{ "time": 0.8333, "color": "ff0000ff" },
					{ "time": 0.9, "color": "ff000000" },
					{ "time": 1, "color": "ff0000ff" },
					{ "time": 1.6667, "color": "ff000000" }
				]
			},
			"room_heart2": {
				"color": [
					{ "time": 0, "color": "ff0000ff" },
					{ "time": 0.0667, "color": "ff000000" },
					{ "time": 0.1667, "color": "ff0000ff" },
					{ "time": 0.2333, "color": "ff000000" },
					{ "time": 0.3333, "color": "ff0000ff" },
					{ "time": 0.4, "color": "ff000000" },
					{ "time": 0.5, "color": "ff0000ff" },
					{ "time": 0.5667, "color": "ff000000" },
					{ "time": 0.6667, "color": "ff0000ff" },
					{ "time": 0.7333, "color": "ff000000" },
					{ "time": 0.8333, "color": "ff0000ff" },
					{ "time": 0.9, "color": "ff000000" },
					{ "time": 1, "color": "ff0000ff" },
					{ "time": 1.6667, "color": "ff000000" }
				]
			},
			"room_heart3": {
				"color": [
					{ "time": 0, "color": "ff0000ff" },
					{ "time": 0.0667, "color": "ff000000" },
					{ "time": 0.1667, "color": "ff0000ff" },
					{ "time": 0.2333, "color": "ff000000" },
					{ "time": 0.3333, "color": "ff0000ff" },
					{ "time": 0.4, "color": "ff000000" },
					{ "time": 0.5, "color": "ff0000ff" },
					{ "time": 0.5667, "color": "ff000000" },
					{ "time": 0.6667, "color": "ff0000ff" },
					{ "time": 0.7333, "color": "ff000000" },
					{ "time": 0.8333, "color": "ff0000ff" },
					{ "time": 0.9, "color": "ff000000" },
					{ "time": 1, "color": "ff0000ff" },
					{ "time": 1.6667, "color": "ff000000" }
				]
			},
			"room_heart4": {
				"color": [
					{ "time": 0, "color": "ff0000ff" },
					{ "time": 0.0667, "color": "ff000000" },
					{ "time": 0.1667, "color": "ff0000ff" },
					{ "time": 0.2333, "color": "ff000000" },
					{ "time": 0.3333, "color": "ff0000ff" },
					{ "time": 0.4, "color": "ff000000" },
					{ "time": 0.5, "color": "ff0000ff" },
					{ "time": 0.5667, "color": "ff000000" },
					{ "time": 0.6667, "color": "ff0000ff" },
					{ "time": 0.7333, "color": "ff000000" },
					{ "time": 0.8333, "color": "ff0000ff" },
					{ "time": 0.9, "color": "ff000000" },
					{ "time": 1, "color": "ff0000ff" },
					{ "time": 1.6667, "color": "ff000000" }
				]
			},
			"room_heart5": {
				"color": [
					{ "time": 0, "color": "ff0000ff" },
					{ "time": 0.0667, "color": "ff000000" },
					{ "time": 0.1667, "color": "ff0000ff" },
					{ "time": 0.2333, "color": "ff000000" },
					{ "time": 0.3333, "color": "ff0000ff" },
					{ "time": 0.4, "color": "ff000000" },
					{ "time": 0.5, "color": "ff0000ff" },
					{ "time": 0.5667, "color": "ff000000" },
					{ "time": 0.6667, "color": "ff0000ff" },
					{ "time": 0.7333, "color": "ff000000" },
					{ "time": 0.8333, "color": "ff0000ff" },
					{ "time": 0.9, "color": "ff000000" },
					{ "time": 1, "color": "ff0000ff" },
					{ "time": 1.6667, "color": "ff000000" }
				]
			},
			"room_heart6": {
				"color": [
					{ "time": 0, "color": "ff0000ff" },
					{ "time": 0.0667, "color": "ff000000" },
					{ "time": 0.1667, "color": "ff0000ff" },
					{ "time": 0.2333, "color": "ff000000" },
					{ "time": 0.3333, "color": "ff0000ff" },
					{ "time": 0.4, "color": "ff000000" },
					{ "time": 0.5, "color": "ff0000ff" },
					{ "time": 0.5667, "color": "ff000000" },
					{ "time": 0.6667, "color": "ff0000ff" },
					{ "time": 0.7333, "color": "ff000000" },
					{ "time": 0.8333, "color": "ff0000ff" },
					{ "time": 0.9, "color": "ff000000" },
					{ "time": 1, "color": "ff0000ff" },
					{ "time": 1.6667, "color": "ff000000" }
				]
			}
		},
		"bones": {
			"heart2": {
				"rotate": [
					{ "time": 0, "angle": 0, "curve": "stepped" },
					{ "time": 0.1667, "angle": 0, "curve": "stepped" },
					{ "time": 0.3333, "angle": 0, "curve": "stepped" },
					{ "time": 0.5, "angle": 0, "curve": "stepped" },
					{ "time": 0.6667, "angle": 0, "curve": "stepped" },
					{ "time": 0.8333, "angle": 0, "curve": "stepped" },
					{ "time": 1, "angle": 0 }
				],
				"translate": [
					{ "time": 0, "x": 0, "y": 0, "curve": "stepped" },
					{ "time": 0.1667, "x": 0, "y": 0, "curve": "stepped" },
					{ "time": 0.3333, "x": 0, "y": 0, "curve": "stepped" },
					{ "time": 0.5, "x": 0, "y": 0, "curve": "stepped" },
					{ "time": 0.6667, "x": 0, "y": 0, "curve": "stepped" },
					{ "time": 0.8333, "x": 0, "y": 0, "curve": "stepped" },
					{ "time": 1, "x": 0, "y": 0 }
				],
				"scale": [
					{ "time": 0, "x": 1, "y": 1, "curve": "stepped" },
					{ "time": 0.1667, "x": 1, "y": 1, "curve": "stepped" },
					{ "time": 0.3333, "x": 1, "y": 1, "curve": "stepped" },
					{ "time": 0.5, "x": 1, "y": 1, "curve": "stepped" },
					{ "time": 0.6667, "x": 1, "y": 1, "curve": "stepped" },
					{ "time": 0.8333, "x": 1, "y": 1, "curve": "stepped" },
					{ "time": 1, "x": 1, "y": 1 }
				],
				"shear": [
					{ "time": 0, "x": 0, "y": 0, "curve": "stepped" },
					{ "time": 0.1667, "x": 0, "y": 0, "curve": "stepped" },
					{ "time": 0.3333, "x": 0, "y": 0, "curve": "stepped" },
					{ "time": 0.5, "x": 0, "y": 0, "curve": "stepped" },
					{ "time": 0.6667, "x": 0, "y": 0, "curve": "stepped" },
					{ "time": 0.8333, "x": 0, "y": 0, "curve": "stepped" },
					{ "time": 1, "x": 0, "y": 0 }
				]
			},
			"heart3": {
				"rotate": [
					{ "time": 0, "angle": 0, "curve": "stepped" },
					{ "time": 0.1667, "angle": 0, "curve": "stepped" },
					{ "time": 0.3333, "angle": 0, "curve": "stepped" },
					{ "time": 0.5, "angle": 0, "curve": "stepped" },
					{ "time": 0.6667, "angle": 0, "curve": "stepped" },
					{ "time": 0.8333, "angle": 0, "curve": "stepped" },
					{ "time": 1, "angle": 0 }
				],
				"translate": [
					{ "time": 0, "x": 0, "y": 0, "curve": "stepped" },
					{ "time": 0.1667, "x": 0, "y": 0, "curve": "stepped" },
					{ "time": 0.3333, "x": 0, "y": 0, "curve": "stepped" },
					{ "time": 0.5, "x": 0, "y": 0, "curve": "stepped" },
					{ "time": 0.6667, "x": 0, "y": 0, "curve": "stepped" },
					{ "time": 0.8333, "x": 0, "y": 0, "curve": "stepped" },
					{ "time": 1, "x": 0, "y": 0 }
				],
				"scale": [
					{ "time": 0, "x": 1, "y": 1, "curve": "stepped" },
					{ "time": 0.1667, "x": 1, "y": 1, "curve": "stepped" },
					{ "time": 0.3333, "x": 1, "y": 1, "curve": "stepped" },
					{ "time": 0.5, "x": 1, "y": 1, "curve": "stepped" },
					{ "time": 0.6667, "x": 1, "y": 1, "curve": "stepped" },
					{ "time": 0.8333, "x": 1, "y": 1, "curve": "stepped" },
					{ "time": 1, "x": 1, "y": 1 }
				],
				"shear": [
					{ "time": 0, "x": 0, "y": 0, "curve": "stepped" },
					{ "time": 0.1667, "x": 0, "y": 0, "curve": "stepped" },
					{ "time": 0.3333, "x": 0, "y": 0, "curve": "stepped" },
					{ "time": 0.5, "x": 0, "y": 0, "curve": "stepped" },
					{ "time": 0.6667, "x": 0, "y": 0, "curve": "stepped" },
					{ "time": 0.8333, "x": 0, "y": 0, "curve": "stepped" },
					{ "time": 1, "x": 0, "y": 0 }
				]
			},
			"heart4": {
				"rotate": [
					{ "time": 0, "angle": 0, "curve": "stepped" },
					{ "time": 0.1667, "angle": 0, "curve": "stepped" },
					{ "time": 0.3333, "angle": 0, "curve": "stepped" },
					{ "time": 0.5, "angle": 0, "curve": "stepped" },
					{ "time": 0.6667, "angle": 0, "curve": "stepped" },
					{ "time": 0.8333, "angle": 0, "curve": "stepped" },
					{ "time": 1, "angle": 0 }
				],
				"translate": [
					{ "time": 0, "x": 0, "y": 0, "curve": "stepped" },
					{ "time": 0.1667, "x": 0, "y": 0, "curve": "stepped" },
					{ "time": 0.3333, "x": 0, "y": 0, "curve": "stepped" },
					{ "time": 0.5, "x": 0, "y": 0, "curve": "stepped" },
					{ "time": 0.6667, "x": 0, "y": 0, "curve": "stepped" },
					{ "time": 0.8333, "x": 0, "y": 0, "curve": "stepped" },
					{ "time": 1, "x": 0, "y": 0 }
				],
				"scale": [
					{ "time": 0, "x": 1, "y": 1, "curve": "stepped" },
					{ "time": 0.1667, "x": 1, "y": 1, "curve": "stepped" },
					{ "time": 0.3333, "x": 1, "y": 1, "curve": "stepped" },
					{ "time": 0.5, "x": 1, "y": 1, "curve": "stepped" },
					{ "time": 0.6667, "x": 1, "y": 1, "curve": "stepped" },
					{ "time": 0.8333, "x": 1, "y": 1, "curve": "stepped" },
					{ "time": 1, "x": 1, "y": 1 }
				],
				"shear": [
					{ "time": 0, "x": 0, "y": 0, "curve": "stepped" },
					{ "time": 0.1667, "x": 0, "y": 0, "curve": "stepped" },
					{ "time": 0.3333, "x": 0, "y": 0, "curve": "stepped" },
					{ "time": 0.5, "x": 0, "y": 0, "curve": "stepped" },
					{ "time": 0.6667, "x": 0, "y": 0, "curve": "stepped" },
					{ "time": 0.8333, "x": 0, "y": 0, "curve": "stepped" },
					{ "time": 1, "x": 0, "y": 0 }
				]
			},
			"heart5": {
				"rotate": [
					{ "time": 0, "angle": 0, "curve": "stepped" },
					{ "time": 0.1667, "angle": 0, "curve": "stepped" },
					{ "time": 0.3333, "angle": 0, "curve": "stepped" },
					{ "time": 0.5, "angle": 0, "curve": "stepped" },
					{ "time": 0.6667, "angle": 0, "curve": "stepped" },
					{ "time": 0.8333, "angle": 0, "curve": "stepped" },
					{ "time": 1, "angle": 0 }
				],
				"translate": [
					{ "time": 0, "x": 0, "y": 0, "curve": "stepped" },
					{ "time": 0.1667, "x": 0, "y": 0, "curve": "stepped" },
					{ "time": 0.3333, "x": 0, "y": 0, "curve": "stepped" },
					{ "time": 0.5, "x": 0, "y": 0, "curve": "stepped" },
					{ "time": 0.6667, "x": 0, "y": 0, "curve": "stepped" },
					{ "time": 0.8333, "x": 0, "y": 0, "curve": "stepped" },
					{ "time": 1, "x": 0, "y": 0 }
				],
				"scale": [
					{ "time": 0, "x": 1, "y": 1, "curve": "stepped" },
					{ "time": 0.1667, "x": 1, "y": 1, "curve": "stepped" },
					{ "time": 0.3333, "x": 1, "y": 1, "curve": "stepped" },
					{ "time": 0.5, "x": 1, "y": 1, "curve": "stepped" },
					{ "time": 0.6667, "x": 1, "y": 1, "curve": "stepped" },
					{ "time": 0.8333, "x": 1, "y": 1, "curve": "stepped" },
					{ "time": 1, "x": 1, "y": 1 }
				],
				"shear": [
					{ "time": 0, "x": 0, "y": 0, "curve": "stepped" },
					{ "time": 0.1667, "x": 0, "y": 0, "curve": "stepped" },
					{ "time": 0.3333, "x": 0, "y": 0, "curve": "stepped" },
					{ "time": 0.5, "x": 0, "y": 0, "curve": "stepped" },
					{ "time": 0.6667, "x": 0, "y": 0, "curve": "stepped" },
					{ "time": 0.8333, "x": 0, "y": 0, "curve": "stepped" },
					{ "time": 1, "x": 0, "y": 0 }
				]
			},
			"heart6": {
				"rotate": [
					{ "time": 0, "angle": 0, "curve": "stepped" },
					{ "time": 0.1667, "angle": 0, "curve": "stepped" },
					{ "time": 0.3333, "angle": 0, "curve": "stepped" },
					{ "time": 0.5, "angle": 0, "curve": "stepped" },
					{ "time": 0.6667, "angle": 0, "curve": "stepped" },
					{ "time": 0.8333, "angle": 0, "curve": "stepped" },
					{ "time": 1, "angle": 0 }
				],
				"translate": [
					{ "time": 0, "x": 0, "y": 0, "curve": "stepped" },
					{ "time": 0.1667, "x": 0, "y": 0, "curve": "stepped" },
					{ "time": 0.3333, "x": 0, "y": 0, "curve": "stepped" },
					{ "time": 0.5, "x": 0, "y": 0, "curve": "stepped" },
					{ "time": 0.6667, "x": 0, "y": 0, "curve": "stepped" },
					{ "time": 0.8333, "x": 0, "y": 0, "curve": "stepped" },
					{ "time": 1, "x": 0, "y": 0 }
				],
				"scale": [
					{ "time": 0, "x": 1, "y": 1, "curve": "stepped" },
					{ "time": 0.1667, "x": 1, "y": 1, "curve": "stepped" },
					{ "time": 0.3333, "x": 1, "y": 1, "curve": "stepped" },
					{ "time": 0.5, "x": 1, "y": 1, "curve": "stepped" },
					{ "time": 0.6667, "x": 1, "y": 1, "curve": "stepped" },
					{ "time": 0.8333, "x": 1, "y": 1, "curve": "stepped" },
					{ "time": 1, "x": 1, "y": 1 }
				],
				"shear": [
					{ "time": 0, "x": 0, "y": 0, "curve": "stepped" },
					{ "time": 0.1667, "x": 0, "y": 0, "curve": "stepped" },
					{ "time": 0.3333, "x": 0, "y": 0, "curve": "stepped" },
					{ "time": 0.5, "x": 0, "y": 0, "curve": "stepped" },
					{ "time": 0.6667, "x": 0, "y": 0, "curve": "stepped" },
					{ "time": 0.8333, "x": 0, "y": 0, "curve": "stepped" },
					{ "time": 1, "x": 0, "y": 0 }
				]
			},
			"heart7": {
				"rotate": [
					{ "time": 0, "angle": 0, "curve": "stepped" },
					{ "time": 0.1667, "angle": 0, "curve": "stepped" },
					{ "time": 0.3333, "angle": 0, "curve": "stepped" },
					{ "time": 0.5, "angle": 0, "curve": "stepped" },
					{ "time": 0.6667, "angle": 0, "curve": "stepped" },
					{ "time": 0.8333, "angle": 0, "curve": "stepped" },
					{ "time": 1, "angle": 0 }
				],
				"translate": [
					{ "time": 0, "x": 0, "y": 0, "curve": "stepped" },
					{ "time": 0.1667, "x": 0, "y": 0, "curve": "stepped" },
					{ "time": 0.3333, "x": 0, "y": 0, "curve": "stepped" },
					{ "time": 0.5, "x": 0, "y": 0, "curve": "stepped" },
					{ "time": 0.6667, "x": 0, "y": 0, "curve": "stepped" },
					{ "time": 0.8333, "x": 0, "y": 0, "curve": "stepped" },
					{ "time": 1, "x": 0, "y": 0 }
				],
				"scale": [
					{ "time": 0, "x": 1, "y": 1, "curve": "stepped" },
					{ "time": 0.1667, "x": 1, "y": 1, "curve": "stepped" },
					{ "time": 0.3333, "x": 1, "y": 1, "curve": "stepped" },
					{ "time": 0.5, "x": 1, "y": 1, "curve": "stepped" },
					{ "time": 0.6667, "x": 1, "y": 1, "curve": "stepped" },
					{ "time": 0.8333, "x": 1, "y": 1, "curve": "stepped" },
					{ "time": 1, "x": 1, "y": 1 }
				],
				"shear": [
					{ "time": 0, "x": 0, "y": 0, "curve": "stepped" },
					{ "time": 0.1667, "x": 0, "y": 0, "curve": "stepped" },
					{ "time": 0.3333, "x": 0, "y": 0, "curve": "stepped" },
					{ "time": 0.5, "x": 0, "y": 0, "curve": "stepped" },
					{ "time": 0.6667, "x": 0, "y": 0, "curve": "stepped" },
					{ "time": 0.8333, "x": 0, "y": 0, "curve": "stepped" },
					{ "time": 1, "x": 0, "y": 0 }
				]
			}
		}
	},
	"hearts_on_idle": {
		"slots": {
			"room_bg_blue": {
				"attachment": [
					{ "time": 0, "name": null }
				]
			},
			"room_bg_off": {
				"attachment": [
					{ "time": 0, "name": null }
				]
			},
			"room_door": {
				"attachment": [
					{ "time": 0, "name": null }
				]
			},
			"room_door3": {
				"attachment": [
					{ "time": 0, "name": null }
				]
			},
			"room_door_single": {
				"attachment": [
					{ "time": 0, "name": null }
				]
			},
			"room_heart": {
				"color": [
					{ "time": 0, "color": "007cffff", "curve": "stepped" },
					{ "time": 0.2333, "color": "007cffff" },
					{ "time": 0.4333, "color": "007cff00" },
					{ "time": 1.1333, "color": "007cff00" },
					{ "time": 1.3333, "color": "007cffff" }
				]
			},
			"room_heart2": {
				"color": [
					{ "time": 0, "color": "ff00e300", "curve": "stepped" },
					{ "time": 0.2333, "color": "ff00e300" },
					{ "time": 0.4333, "color": "ff00e3ff", "curve": "stepped" },
					{ "time": 0.6667, "color": "ff00e3ff" },
					{ "time": 0.9, "color": "ff00e300" }
				]
			},
			"room_heart3": {
				"color": [
					{ "time": 0, "color": "007cffff", "curve": "stepped" },
					{ "time": 0.2333, "color": "007cffff" },
					{ "time": 0.4333, "color": "007cff00" },
					{ "time": 1.1333, "color": "007cff00" },
					{ "time": 1.3333, "color": "007cffff" }
				]
			},
			"room_heart4": {
				"color": [
					{ "time": 0, "color": "ff00e300", "curve": "stepped" },
					{ "time": 0.2333, "color": "ff00e300" },
					{ "time": 0.4333, "color": "ff00e3ff", "curve": "stepped" },
					{ "time": 0.6667, "color": "ff00e3ff" },
					{ "time": 0.9, "color": "ff00e300" }
				]
			},
			"room_heart5": {
				"color": [
					{ "time": 0, "color": "ff00e300" },
					{ "time": 0.6667, "color": "9500ff00" },
					{ "time": 0.9, "color": "9500ffff", "curve": "stepped" },
					{ "time": 1.1333, "color": "9500ffff" },
					{ "time": 1.3333, "color": "9500ff00" }
				]
			},
			"room_heart6": {
				"color": [
					{ "time": 0, "color": "ff00e300" },
					{ "time": 0.6667, "color": "9500ff00" },
					{ "time": 0.9, "color": "9500ffff", "curve": "stepped" },
					{ "time": 1.1333, "color": "9500ffff" },
					{ "time": 1.3333, "color": "9500ff00" }
				]
			}
		},
		"bones": {
			"heart2": {
				"rotate": [
					{ "time": 0, "angle": 0, "curve": "stepped" },
					{ "time": 0.2333, "angle": 0, "curve": "stepped" },
					{ "time": 0.4333, "angle": 0, "curve": "stepped" },
					{ "time": 1.1333, "angle": 0, "curve": "stepped" },
					{ "time": 1.3333, "angle": 0 }
				],
				"translate": [
					{ "time": 0, "x": 0, "y": 0, "curve": "stepped" },
					{ "time": 0.2333, "x": 0, "y": 0, "curve": "stepped" },
					{ "time": 0.4333, "x": 0, "y": 0, "curve": "stepped" },
					{ "time": 1.1333, "x": 0, "y": 0, "curve": "stepped" },
					{ "time": 1.3333, "x": 0, "y": 0 }
				],
				"scale": [
					{ "time": 0, "x": 1, "y": 1, "curve": "stepped" },
					{ "time": 0.2333, "x": 1, "y": 1, "curve": "stepped" },
					{ "time": 0.4333, "x": 1, "y": 1, "curve": "stepped" },
					{ "time": 1.1333, "x": 1, "y": 1, "curve": "stepped" },
					{ "time": 1.3333, "x": 1, "y": 1 }
				],
				"shear": [
					{ "time": 0, "x": 0, "y": 0, "curve": "stepped" },
					{ "time": 0.2333, "x": 0, "y": 0, "curve": "stepped" },
					{ "time": 0.4333, "x": 0, "y": 0, "curve": "stepped" },
					{ "time": 1.1333, "x": 0, "y": 0, "curve": "stepped" },
					{ "time": 1.3333, "x": 0, "y": 0 }
				]
			},
			"heart3": {
				"rotate": [
					{ "time": 0, "angle": 0, "curve": "stepped" },
					{ "time": 0.2333, "angle": 0, "curve": "stepped" },
					{ "time": 0.9, "angle": 0 }
				],
				"translate": [
					{ "time": 0, "x": 0, "y": 0, "curve": "stepped" },
					{ "time": 0.2333, "x": 0, "y": 0, "curve": "stepped" },
					{ "time": 0.9, "x": 0, "y": 0 }
				],
				"scale": [
					{ "time": 0, "x": 1, "y": 1, "curve": "stepped" },
					{ "time": 0.2333, "x": 1, "y": 1, "curve": "stepped" },
					{ "time": 0.9, "x": 1, "y": 1 }
				],
				"shear": [
					{ "time": 0, "x": 0, "y": 0, "curve": "stepped" },
					{ "time": 0.2333, "x": 0, "y": 0, "curve": "stepped" },
					{ "time": 0.9, "x": 0, "y": 0 }
				]
			},
			"heart4": {
				"rotate": [
					{ "time": 0, "angle": 0, "curve": "stepped" },
					{ "time": 0.6667, "angle": 0, "curve": "stepped" },
					{ "time": 1.3333, "angle": 0 }
				],
				"translate": [
					{ "time": 0, "x": 0, "y": 0, "curve": "stepped" },
					{ "time": 0.6667, "x": 0, "y": 0, "curve": "stepped" },
					{ "time": 1.3333, "x": 0, "y": 0 }
				],
				"scale": [
					{ "time": 0, "x": 1, "y": 1, "curve": "stepped" },
					{ "time": 0.6667, "x": 1, "y": 1, "curve": "stepped" },
					{ "time": 1.3333, "x": 1, "y": 1 }
				],
				"shear": [
					{ "time": 0, "x": 0, "y": 0, "curve": "stepped" },
					{ "time": 0.6667, "x": 0, "y": 0, "curve": "stepped" },
					{ "time": 1.3333, "x": 0, "y": 0 }
				]
			},
			"heart5": {
				"rotate": [
					{ "time": 0, "angle": 0, "curve": "stepped" },
					{ "time": 0.2333, "angle": 0, "curve": "stepped" },
					{ "time": 0.4333, "angle": 0, "curve": "stepped" },
					{ "time": 1.1333, "angle": 0, "curve": "stepped" },
					{ "time": 1.3333, "angle": 0 }
				],
				"translate": [
					{ "time": 0, "x": 0, "y": 0, "curve": "stepped" },
					{ "time": 0.2333, "x": 0, "y": 0, "curve": "stepped" },
					{ "time": 0.4333, "x": 0, "y": 0, "curve": "stepped" },
					{ "time": 1.1333, "x": 0, "y": 0, "curve": "stepped" },
					{ "time": 1.3333, "x": 0, "y": 0 }
				],
				"scale": [
					{ "time": 0, "x": 1, "y": 1, "curve": "stepped" },
					{ "time": 0.2333, "x": 1, "y": 1, "curve": "stepped" },
					{ "time": 0.4333, "x": 1, "y": 1, "curve": "stepped" },
					{ "time": 1.1333, "x": 1, "y": 1, "curve": "stepped" },
					{ "time": 1.3333, "x": 1, "y": 1 }
				],
				"shear": [
					{ "time": 0, "x": 0, "y": 0, "curve": "stepped" },
					{ "time": 0.2333, "x": 0, "y": 0, "curve": "stepped" },
					{ "time": 0.4333, "x": 0, "y": 0, "curve": "stepped" },
					{ "time": 1.1333, "x": 0, "y": 0, "curve": "stepped" },
					{ "time": 1.3333, "x": 0, "y": 0 }
				]
			},
			"heart6": {
				"rotate": [
					{ "time": 0, "angle": 0, "curve": "stepped" },
					{ "time": 0.2333, "angle": 0, "curve": "stepped" },
					{ "time": 0.9, "angle": 0 }
				],
				"translate": [
					{ "time": 0, "x": 0, "y": 0, "curve": "stepped" },
					{ "time": 0.2333, "x": 0, "y": 0, "curve": "stepped" },
					{ "time": 0.9, "x": 0, "y": 0 }
				],
				"scale": [
					{ "time": 0, "x": 1, "y": 1, "curve": "stepped" },
					{ "time": 0.2333, "x": 1, "y": 1, "curve": "stepped" },
					{ "time": 0.9, "x": 1, "y": 1 }
				],
				"shear": [
					{ "time": 0, "x": 0, "y": 0, "curve": "stepped" },
					{ "time": 0.2333, "x": 0, "y": 0, "curve": "stepped" },
					{ "time": 0.9, "x": 0, "y": 0 }
				]
			},
			"heart7": {
				"rotate": [
					{ "time": 0, "angle": 0, "curve": "stepped" },
					{ "time": 0.6667, "angle": 0, "curve": "stepped" },
					{ "time": 1.3333, "angle": 0 }
				],
				"translate": [
					{ "time": 0, "x": 0, "y": 0, "curve": "stepped" },
					{ "time": 0.6667, "x": 0, "y": 0, "curve": "stepped" },
					{ "time": 1.3333, "x": 0, "y": 0 }
				],
				"scale": [
					{ "time": 0, "x": 1, "y": 1, "curve": "stepped" },
					{ "time": 0.6667, "x": 1, "y": 1, "curve": "stepped" },
					{ "time": 1.3333, "x": 1, "y": 1 }
				],
				"shear": [
					{ "time": 0, "x": 0, "y": 0, "curve": "stepped" },
					{ "time": 0.6667, "x": 0, "y": 0, "curve": "stepped" },
					{ "time": 1.3333, "x": 0, "y": 0 }
				]
			}
		}
	},
	"hearts_on_start": {
		"slots": {
			"room_bg_blue": {
				"attachment": [
					{ "time": 0, "name": null },
					{ "time": 0.5, "name": null }
				]
			},
			"room_bg_off": {
				"attachment": [
					{ "time": 0, "name": null },
					{ "time": 0.5, "name": null }
				]
			},
			"room_door": {
				"attachment": [
					{ "time": 0, "name": null },
					{ "time": 0.5, "name": null }
				]
			},
			"room_door3": {
				"attachment": [
					{ "time": 0, "name": null },
					{ "time": 0.5, "name": null }
				]
			},
			"room_door_single": {
				"attachment": [
					{ "time": 0, "name": null },
					{ "time": 0.5, "name": null }
				]
			},
			"room_heart": {
				"color": [
					{ "time": 0, "color": "007cff00" },
					{ "time": 0.1667, "color": "007cffff" },
					{ "time": 0.5, "color": "007cff00" }
				]
			},
			"room_heart2": {
				"color": [
					{ "time": 0, "color": "ff00e300" },
					{ "time": 0.1667, "color": "ff00e3ff" },
					{ "time": 0.5, "color": "ff00e300" }
				]
			},
			"room_heart3": {
				"color": [
					{ "time": 0, "color": "007cff00" },
					{ "time": 0.1667, "color": "007cffff" },
					{ "time": 0.5, "color": "007cff00" }
				]
			},
			"room_heart4": {
				"color": [
					{ "time": 0, "color": "ff00e300" },
					{ "time": 0.1667, "color": "ff00e3ff" },
					{ "time": 0.5, "color": "ff00e300" }
				]
			},
			"room_heart5": {
				"color": [
					{ "time": 0, "color": "9500ff00" },
					{ "time": 0.1667, "color": "9500ffff" },
					{ "time": 0.5, "color": "9500ff00" }
				]
			},
			"room_heart6": {
				"color": [
					{ "time": 0, "color": "9500ff00" },
					{ "time": 0.1667, "color": "9500ffff" },
					{ "time": 0.5, "color": "9500ff00" }
				]
			}
		},
		"bones": {
			"heart2": {
				"rotate": [
					{ "time": 0, "angle": 0, "curve": "stepped" },
					{ "time": 0.1667, "angle": 0, "curve": "stepped" },
					{ "time": 0.5, "angle": 0 }
				],
				"translate": [
					{ "time": 0, "x": 0, "y": 0, "curve": "stepped" },
					{ "time": 0.1667, "x": 0, "y": 0, "curve": "stepped" },
					{ "time": 0.5, "x": 0, "y": 0 }
				],
				"scale": [
					{ "time": 0, "x": 1, "y": 1, "curve": "stepped" },
					{ "time": 0.1667, "x": 1, "y": 1, "curve": "stepped" },
					{ "time": 0.5, "x": 1, "y": 1 }
				],
				"shear": [
					{ "time": 0, "x": 0, "y": 0, "curve": "stepped" },
					{ "time": 0.1667, "x": 0, "y": 0, "curve": "stepped" },
					{ "time": 0.5, "x": 0, "y": 0 }
				]
			},
			"heart3": {
				"rotate": [
					{ "time": 0, "angle": 0, "curve": "stepped" },
					{ "time": 0.5, "angle": 0 }
				],
				"translate": [
					{ "time": 0, "x": 0, "y": 0, "curve": "stepped" },
					{ "time": 0.5, "x": 0, "y": 0 }
				],
				"scale": [
					{ "time": 0, "x": 1, "y": 1, "curve": "stepped" },
					{ "time": 0.5, "x": 1, "y": 1 }
				],
				"shear": [
					{ "time": 0, "x": 0, "y": 0, "curve": "stepped" },
					{ "time": 0.5, "x": 0, "y": 0 }
				]
			},
			"heart4": {
				"rotate": [
					{ "time": 0, "angle": 0, "curve": "stepped" },
					{ "time": 0.5, "angle": 0 }
				],
				"translate": [
					{ "time": 0, "x": 0, "y": 0, "curve": "stepped" },
					{ "time": 0.5, "x": 0, "y": 0 }
				],
				"scale": [
					{ "time": 0, "x": 1, "y": 1, "curve": "stepped" },
					{ "time": 0.5, "x": 1, "y": 1 }
				],
				"shear": [
					{ "time": 0, "x": 0, "y": 0, "curve": "stepped" },
					{ "time": 0.5, "x": 0, "y": 0 }
				]
			},
			"heart5": {
				"rotate": [
					{ "time": 0, "angle": 0, "curve": "stepped" },
					{ "time": 0.1667, "angle": 0, "curve": "stepped" },
					{ "time": 0.5, "angle": 0 }
				],
				"translate": [
					{ "time": 0, "x": 0, "y": 0, "curve": "stepped" },
					{ "time": 0.1667, "x": 0, "y": 0, "curve": "stepped" },
					{ "time": 0.5, "x": 0, "y": 0 }
				],
				"scale": [
					{ "time": 0, "x": 1, "y": 1, "curve": "stepped" },
					{ "time": 0.1667, "x": 1, "y": 1, "curve": "stepped" },
					{ "time": 0.5, "x": 1, "y": 1 }
				],
				"shear": [
					{ "time": 0, "x": 0, "y": 0, "curve": "stepped" },
					{ "time": 0.1667, "x": 0, "y": 0, "curve": "stepped" },
					{ "time": 0.5, "x": 0, "y": 0 }
				]
			},
			"heart6": {
				"rotate": [
					{ "time": 0, "angle": 0, "curve": "stepped" },
					{ "time": 0.5, "angle": 0 }
				],
				"translate": [
					{ "time": 0, "x": 0, "y": 0, "curve": "stepped" },
					{ "time": 0.5, "x": 0, "y": 0 }
				],
				"scale": [
					{ "time": 0, "x": 1, "y": 1, "curve": "stepped" },
					{ "time": 0.5, "x": 1, "y": 1 }
				],
				"shear": [
					{ "time": 0, "x": 0, "y": 0, "curve": "stepped" },
					{ "time": 0.5, "x": 0, "y": 0 }
				]
			},
			"heart7": {
				"rotate": [
					{ "time": 0, "angle": 0, "curve": "stepped" },
					{ "time": 0.5, "angle": 0 }
				],
				"translate": [
					{ "time": 0, "x": 0, "y": 0, "curve": "stepped" },
					{ "time": 0.5, "x": 0, "y": 0 }
				],
				"scale": [
					{ "time": 0, "x": 1, "y": 1, "curve": "stepped" },
					{ "time": 0.5, "x": 1, "y": 1 }
				],
				"shear": [
					{ "time": 0, "x": 0, "y": 0, "curve": "stepped" },
					{ "time": 0.5, "x": 0, "y": 0 }
				]
			}
		}
	},
	"room_double_off_idle": {
		"slots": {
			"room_heart": {
				"attachment": [
					{ "time": 0, "name": null },
					{ "time": 0.3333, "name": null }
				]
			},
			"room_heart2": {
				"attachment": [
					{ "time": 0, "name": null },
					{ "time": 0.3333, "name": null }
				]
			},
			"room_heart3": {
				"attachment": [
					{ "time": 0, "name": null },
					{ "time": 0.3333, "name": null }
				]
			},
			"room_heart4": {
				"attachment": [
					{ "time": 0, "name": null },
					{ "time": 0.3333, "name": null }
				]
			},
			"room_heart5": {
				"attachment": [
					{ "time": 0, "name": null },
					{ "time": 0.3333, "name": null }
				]
			},
			"room_heart6": {
				"attachment": [
					{ "time": 0, "name": null },
					{ "time": 0.3333, "name": null }
				]
			}
		},
		"bones": {
			"root": {
				"rotate": [
					{ "time": 0, "angle": 0, "curve": "stepped" },
					{ "time": 0.3333, "angle": 0 }
				],
				"translate": [
					{ "time": 0, "x": 0, "y": 0, "curve": "stepped" },
					{ "time": 0.3333, "x": 0, "y": 0 }
				],
				"scale": [
					{ "time": 0, "x": 1, "y": 1, "curve": "stepped" },
					{ "time": 0.3333, "x": 1, "y": 1 }
				],
				"shear": [
					{ "time": 0, "x": 0, "y": 0, "curve": "stepped" },
					{ "time": 0.3333, "x": 0, "y": 0 }
				]
			},
			"bone2": {
				"rotate": [
					{ "time": 0, "angle": 0, "curve": "stepped" },
					{ "time": 0.3333, "angle": 0 }
				],
				"translate": [
					{ "time": 0, "x": 0, "y": 0, "curve": "stepped" },
					{ "time": 0.3333, "x": 0, "y": 0 }
				],
				"scale": [
					{ "time": 0, "x": 1, "y": 1, "curve": "stepped" },
					{ "time": 0.3333, "x": 1, "y": 1 }
				],
				"shear": [
					{ "time": 0, "x": 0, "y": 0, "curve": "stepped" },
					{ "time": 0.3333, "x": 0, "y": 0 }
				]
			},
			"bone3": {
				"rotate": [
					{ "time": 0, "angle": 0, "curve": "stepped" },
					{ "time": 0.3333, "angle": 0 }
				],
				"translate": [
					{ "time": 0, "x": 0, "y": 0, "curve": "stepped" },
					{ "time": 0.3333, "x": 0, "y": 0 }
				],
				"scale": [
					{ "time": 0, "x": 1, "y": 1, "curve": "stepped" },
					{ "time": 0.3333, "x": 1, "y": 1 }
				],
				"shear": [
					{ "time": 0, "x": 0, "y": 0, "curve": "stepped" },
					{ "time": 0.3333, "x": 0, "y": 0 }
				]
			}
		}
	},
	"room_double_off_start": {
		"slots": {
			"room_bg_off": {
				"color": [
					{ "time": 0, "color": "ffffff00" },
					{ "time": 0.3333, "color": "ffffffff" }
				]
			},
			"room_heart": {
				"attachment": [
					{ "time": 0, "name": null },
					{ "time": 0.3333, "name": null }
				]
			},
			"room_heart2": {
				"attachment": [
					{ "time": 0, "name": null },
					{ "time": 0.3333, "name": null }
				]
			},
			"room_heart3": {
				"attachment": [
					{ "time": 0, "name": null },
					{ "time": 0.3333, "name": null }
				]
			},
			"room_heart4": {
				"attachment": [
					{ "time": 0, "name": null },
					{ "time": 0.3333, "name": null }
				]
			},
			"room_heart5": {
				"attachment": [
					{ "time": 0, "name": null },
					{ "time": 0.3333, "name": null }
				]
			},
			"room_heart6": {
				"attachment": [
					{ "time": 0, "name": null },
					{ "time": 0.3333, "name": null }
				]
			}
		},
		"bones": {
			"root": {
				"rotate": [
					{ "time": 0, "angle": 0, "curve": "stepped" },
					{ "time": 0.3333, "angle": 0 }
				],
				"translate": [
					{ "time": 0, "x": 0, "y": 0, "curve": "stepped" },
					{ "time": 0.3333, "x": 0, "y": 0 }
				],
				"scale": [
					{ "time": 0, "x": 1, "y": 1, "curve": "stepped" },
					{ "time": 0.3333, "x": 1, "y": 1 }
				],
				"shear": [
					{ "time": 0, "x": 0, "y": 0, "curve": "stepped" },
					{ "time": 0.3333, "x": 0, "y": 0 }
				]
			},
			"bone2": {
				"rotate": [
					{ "time": 0, "angle": 0, "curve": "stepped" },
					{ "time": 0.3333, "angle": 0 }
				],
				"translate": [
					{ "time": 0, "x": -1.27, "y": 224.94 },
					{ "time": 0.3333, "x": 0, "y": 0 }
				],
				"scale": [
					{ "time": 0, "x": 0.603, "y": 1 },
					{ "time": 0.3333, "x": 1, "y": 1 }
				],
				"shear": [
					{ "time": 0, "x": 0, "y": 0, "curve": "stepped" },
					{ "time": 0.3333, "x": 0, "y": 0 }
				]
			},
			"bone3": {
				"rotate": [
					{ "time": 0, "angle": 0, "curve": "stepped" },
					{ "time": 0.3333, "angle": 0 }
				],
				"translate": [
					{ "time": 0, "x": -1.24, "y": 222.26 },
					{ "time": 0.3333, "x": 0, "y": 0 }
				],
				"scale": [
					{ "time": 0, "x": 0.603, "y": 1 },
					{ "time": 0.3333, "x": 1, "y": 1 }
				],
				"shear": [
					{ "time": 0, "x": 0, "y": 0, "curve": "stepped" },
					{ "time": 0.3333, "x": 0, "y": 0 }
				]
			}
		}
	},
	"room_double_on_idle": {
		"slots": {
			"room_bg_off": {
				"color": [
					{ "time": 0, "color": "ffffff00" }
				]
			},
			"room_heart": {
				"attachment": [
					{ "time": 0, "name": null }
				]
			},
			"room_heart2": {
				"attachment": [
					{ "time": 0, "name": null }
				]
			},
			"room_heart3": {
				"attachment": [
					{ "time": 0, "name": null }
				]
			},
			"room_heart4": {
				"attachment": [
					{ "time": 0, "name": null }
				]
			},
			"room_heart5": {
				"attachment": [
					{ "time": 0, "name": null }
				]
			},
			"room_heart6": {
				"attachment": [
					{ "time": 0, "name": null }
				]
			}
		},
		"bones": {
			"root": {
				"rotate": [
					{ "time": 0, "angle": 0, "curve": "stepped" },
					{ "time": 0.3333, "angle": 0 }
				],
				"translate": [
					{ "time": 0, "x": 0, "y": 0, "curve": "stepped" },
					{ "time": 0.3333, "x": 0, "y": 0 }
				],
				"scale": [
					{ "time": 0, "x": 1, "y": 1, "curve": "stepped" },
					{ "time": 0.3333, "x": 1, "y": 1 }
				],
				"shear": [
					{ "time": 0, "x": 0, "y": 0, "curve": "stepped" },
					{ "time": 0.3333, "x": 0, "y": 0 }
				]
			},
			"bone2": {
				"rotate": [
					{ "time": 0, "angle": 0, "curve": "stepped" },
					{ "time": 0.3333, "angle": 0 }
				],
				"translate": [
					{ "time": 0, "x": -1.27, "y": 224.94, "curve": "stepped" },
					{ "time": 0.3333, "x": -1.27, "y": 224.94 }
				],
				"scale": [
					{ "time": 0, "x": 0.603, "y": 1, "curve": "stepped" },
					{ "time": 0.3333, "x": 0.603, "y": 1 }
				],
				"shear": [
					{ "time": 0, "x": 0, "y": 0, "curve": "stepped" },
					{ "time": 0.3333, "x": 0, "y": 0 }
				]
			},
			"bone3": {
				"rotate": [
					{ "time": 0, "angle": 0, "curve": "stepped" },
					{ "time": 0.3333, "angle": 0 }
				],
				"translate": [
					{ "time": 0, "x": -1.24, "y": 222.26, "curve": "stepped" },
					{ "time": 0.3333, "x": -1.24, "y": 222.26 }
				],
				"scale": [
					{ "time": 0, "x": 0.603, "y": 1, "curve": "stepped" },
					{ "time": 0.3333, "x": 0.603, "y": 1 }
				],
				"shear": [
					{ "time": 0, "x": 0, "y": 0, "curve": "stepped" },
					{ "time": 0.3333, "x": 0, "y": 0 }
				]
			},
			"room": {
				"rotate": [
					{ "time": 0, "angle": 0, "curve": "stepped" },
					{ "time": 0.3333, "angle": 0 }
				],
				"translate": [
					{ "time": 0, "x": 0, "y": 0, "curve": "stepped" },
					{ "time": 0.3333, "x": 0, "y": 0 }
				],
				"scale": [
					{ "time": 0, "x": 1, "y": 1, "curve": "stepped" },
					{ "time": 0.3333, "x": 1, "y": 1 }
				],
				"shear": [
					{ "time": 0, "x": 0, "y": 0, "curve": "stepped" },
					{ "time": 0.3333, "x": 0, "y": 0 }
				]
			},
			"heart2": {
				"rotate": [
					{ "time": 0, "angle": 0, "curve": "stepped" },
					{ "time": 0.3333, "angle": 0 }
				],
				"translate": [
					{ "time": 0, "x": 0, "y": 0, "curve": "stepped" },
					{ "time": 0.3333, "x": 0, "y": 0 }
				],
				"scale": [
					{ "time": 0, "x": 1, "y": 1, "curve": "stepped" },
					{ "time": 0.3333, "x": 1, "y": 1 }
				],
				"shear": [
					{ "time": 0, "x": 0, "y": 0, "curve": "stepped" },
					{ "time": 0.3333, "x": 0, "y": 0 }
				]
			},
			"heart3": {
				"rotate": [
					{ "time": 0, "angle": 0, "curve": "stepped" },
					{ "time": 0.3333, "angle": 0 }
				],
				"translate": [
					{ "time": 0, "x": 0, "y": 0, "curve": "stepped" },
					{ "time": 0.3333, "x": 0, "y": 0 }
				],
				"scale": [
					{ "time": 0, "x": 1, "y": 1, "curve": "stepped" },
					{ "time": 0.3333, "x": 1, "y": 1 }
				],
				"shear": [
					{ "time": 0, "x": 0, "y": 0, "curve": "stepped" },
					{ "time": 0.3333, "x": 0, "y": 0 }
				]
			},
			"heart5": {
				"rotate": [
					{ "time": 0, "angle": 0, "curve": "stepped" },
					{ "time": 0.3333, "angle": 0 }
				],
				"translate": [
					{ "time": 0, "x": 0, "y": 0, "curve": "stepped" },
					{ "time": 0.3333, "x": 0, "y": 0 }
				],
				"scale": [
					{ "time": 0, "x": 1, "y": 1, "curve": "stepped" },
					{ "time": 0.3333, "x": 1, "y": 1 }
				],
				"shear": [
					{ "time": 0, "x": 0, "y": 0, "curve": "stepped" },
					{ "time": 0.3333, "x": 0, "y": 0 }
				]
			},
			"heart6": {
				"rotate": [
					{ "time": 0, "angle": 0, "curve": "stepped" },
					{ "time": 0.3333, "angle": 0 }
				],
				"translate": [
					{ "time": 0, "x": 0, "y": 0, "curve": "stepped" },
					{ "time": 0.3333, "x": 0, "y": 0 }
				],
				"scale": [
					{ "time": 0, "x": 1, "y": 1, "curve": "stepped" },
					{ "time": 0.3333, "x": 1, "y": 1 }
				],
				"shear": [
					{ "time": 0, "x": 0, "y": 0, "curve": "stepped" },
					{ "time": 0.3333, "x": 0, "y": 0 }
				]
			},
			"heart4": {
				"rotate": [
					{ "time": 0, "angle": 0, "curve": "stepped" },
					{ "time": 0.3333, "angle": 0 }
				],
				"translate": [
					{ "time": 0, "x": 0, "y": 0, "curve": "stepped" },
					{ "time": 0.3333, "x": 0, "y": 0 }
				],
				"scale": [
					{ "time": 0, "x": 1, "y": 1, "curve": "stepped" },
					{ "time": 0.3333, "x": 1, "y": 1 }
				],
				"shear": [
					{ "time": 0, "x": 0, "y": 0, "curve": "stepped" },
					{ "time": 0.3333, "x": 0, "y": 0 }
				]
			},
			"heart7": {
				"rotate": [
					{ "time": 0, "angle": 0, "curve": "stepped" },
					{ "time": 0.3333, "angle": 0 }
				],
				"translate": [
					{ "time": 0, "x": 0, "y": 0, "curve": "stepped" },
					{ "time": 0.3333, "x": 0, "y": 0 }
				],
				"scale": [
					{ "time": 0, "x": 1, "y": 1, "curve": "stepped" },
					{ "time": 0.3333, "x": 1, "y": 1 }
				],
				"shear": [
					{ "time": 0, "x": 0, "y": 0, "curve": "stepped" },
					{ "time": 0.3333, "x": 0, "y": 0 }
				]
			},
			"heart": {
				"rotate": [
					{ "time": 0, "angle": 0, "curve": "stepped" },
					{ "time": 0.3333, "angle": 0 }
				],
				"translate": [
					{ "time": 0, "x": 0, "y": 0, "curve": "stepped" },
					{ "time": 0.3333, "x": 0, "y": 0 }
				],
				"scale": [
					{ "time": 0, "x": 1, "y": 1, "curve": "stepped" },
					{ "time": 0.3333, "x": 1, "y": 1 }
				],
				"shear": [
					{ "time": 0, "x": 0, "y": 0, "curve": "stepped" },
					{ "time": 0.3333, "x": 0, "y": 0 }
				]
			}
		}
	},
	"room_single_off_idle": {
		"slots": {
			"room_door3": {
				"attachment": [
					{ "time": 0, "name": null }
				]
			},
			"room_door_single": {
				"attachment": [
					{ "time": 0, "name": "room_door_single" }
				]
			},
			"room_heart": {
				"attachment": [
					{ "time": 0, "name": null },
					{ "time": 0.3333, "name": null }
				]
			},
			"room_heart2": {
				"attachment": [
					{ "time": 0, "name": null },
					{ "time": 0.3333, "name": null }
				]
			},
			"room_heart3": {
				"attachment": [
					{ "time": 0, "name": null },
					{ "time": 0.3333, "name": null }
				]
			},
			"room_heart4": {
				"attachment": [
					{ "time": 0, "name": null },
					{ "time": 0.3333, "name": null }
				]
			},
			"room_heart5": {
				"attachment": [
					{ "time": 0, "name": null },
					{ "time": 0.3333, "name": null }
				]
			},
			"room_heart6": {
				"attachment": [
					{ "time": 0, "name": null },
					{ "time": 0.3333, "name": null }
				]
			}
		},
		"bones": {
			"root": {
				"rotate": [
					{ "time": 0, "angle": 0, "curve": "stepped" },
					{ "time": 0.3333, "angle": 0 }
				],
				"translate": [
					{ "time": 0, "x": 0, "y": 0, "curve": "stepped" },
					{ "time": 0.3333, "x": 0, "y": 0 }
				],
				"scale": [
					{ "time": 0, "x": 1, "y": 1, "curve": "stepped" },
					{ "time": 0.3333, "x": 1, "y": 1 }
				],
				"shear": [
					{ "time": 0, "x": 0, "y": 0, "curve": "stepped" },
					{ "time": 0.3333, "x": 0, "y": 0 }
				]
			},
			"bone2": {
				"rotate": [
					{ "time": 0, "angle": 0, "curve": "stepped" },
					{ "time": 0.3333, "angle": 0 }
				],
				"translate": [
					{ "time": 0, "x": 0, "y": 0, "curve": "stepped" },
					{ "time": 0.3333, "x": 0, "y": 0 }
				],
				"scale": [
					{ "time": 0, "x": 1, "y": 1, "curve": "stepped" },
					{ "time": 0.3333, "x": 1, "y": 1 }
				],
				"shear": [
					{ "time": 0, "x": 0, "y": 0, "curve": "stepped" },
					{ "time": 0.3333, "x": 0, "y": 0 }
				]
			}
		}
	},
	"room_single_off_start": {
		"slots": {
			"room_bg_off": {
				"color": [
					{ "time": 0, "color": "ffffff00" },
					{ "time": 0.3333, "color": "ffffffff" }
				]
			},
			"room_door3": {
				"attachment": [
					{ "time": 0, "name": null }
				]
			},
			"room_door_single": {
				"attachment": [
					{ "time": 0, "name": "room_door_single" }
				]
			},
			"room_heart": {
				"attachment": [
					{ "time": 0, "name": null },
					{ "time": 0.3333, "name": null }
				]
			},
			"room_heart2": {
				"attachment": [
					{ "time": 0, "name": null },
					{ "time": 0.3333, "name": null }
				]
			},
			"room_heart3": {
				"attachment": [
					{ "time": 0, "name": null },
					{ "time": 0.3333, "name": null }
				]
			},
			"room_heart4": {
				"attachment": [
					{ "time": 0, "name": null },
					{ "time": 0.3333, "name": null }
				]
			},
			"room_heart5": {
				"attachment": [
					{ "time": 0, "name": null },
					{ "time": 0.3333, "name": null }
				]
			},
			"room_heart6": {
				"attachment": [
					{ "time": 0, "name": null },
					{ "time": 0.3333, "name": null }
				]
			}
		},
		"bones": {
			"root": {
				"rotate": [
					{ "time": 0, "angle": 0, "curve": "stepped" },
					{ "time": 0.3333, "angle": 0 }
				],
				"translate": [
					{ "time": 0, "x": 0, "y": 0, "curve": "stepped" },
					{ "time": 0.3333, "x": 0, "y": 0 }
				],
				"scale": [
					{ "time": 0, "x": 1, "y": 1, "curve": "stepped" },
					{ "time": 0.3333, "x": 1, "y": 1 }
				],
				"shear": [
					{ "time": 0, "x": 0, "y": 0, "curve": "stepped" },
					{ "time": 0.3333, "x": 0, "y": 0 }
				]
			},
			"bone2": {
				"rotate": [
					{ "time": 0, "angle": 0, "curve": "stepped" },
					{ "time": 0.3333, "angle": 0 }
				],
				"translate": [
					{ "time": 0, "x": -1.27, "y": 224.94 },
					{ "time": 0.3333, "x": 0, "y": 0 }
				],
				"scale": [
					{ "time": 0, "x": 0.603, "y": 1 },
					{ "time": 0.3333, "x": 1, "y": 1 }
				],
				"shear": [
					{ "time": 0, "x": 0, "y": 0, "curve": "stepped" },
					{ "time": 0.3333, "x": 0, "y": 0 }
				]
			}
		}
	},
	"room_single_on_idle": {
		"slots": {
			"room_bg_off": {
				"color": [
					{ "time": 0, "color": "ffffff00", "curve": "stepped" },
					{ "time": 0.3333, "color": "ffffff00" }
				]
			},
			"room_door3": {
				"attachment": [
					{ "time": 0, "name": null },
					{ "time": 0.3333, "name": null }
				]
			},
			"room_door_single": {
				"attachment": [
					{ "time": 0, "name": "room_door_single" },
					{ "time": 0.3333, "name": "room_door_single" }
				]
			},
			"room_heart": {
				"attachment": [
					{ "time": 0, "name": null },
					{ "time": 0.3333, "name": null }
				]
			},
			"room_heart2": {
				"attachment": [
					{ "time": 0, "name": null },
					{ "time": 0.3333, "name": null }
				]
			},
			"room_heart3": {
				"attachment": [
					{ "time": 0, "name": null },
					{ "time": 0.3333, "name": null }
				]
			},
			"room_heart4": {
				"attachment": [
					{ "time": 0, "name": null },
					{ "time": 0.3333, "name": null }
				]
			},
			"room_heart5": {
				"attachment": [
					{ "time": 0, "name": null },
					{ "time": 0.3333, "name": null }
				]
			},
			"room_heart6": {
				"attachment": [
					{ "time": 0, "name": null },
					{ "time": 0.3333, "name": null }
				]
			}
		},
		"bones": {
			"root": {
				"rotate": [
					{ "time": 0, "angle": 0, "curve": "stepped" },
					{ "time": 0.3333, "angle": 0 }
				],
				"translate": [
					{ "time": 0, "x": 0, "y": 0, "curve": "stepped" },
					{ "time": 0.3333, "x": 0, "y": 0 }
				],
				"scale": [
					{ "time": 0, "x": 1, "y": 1, "curve": "stepped" },
					{ "time": 0.3333, "x": 1, "y": 1 }
				],
				"shear": [
					{ "time": 0, "x": 0, "y": 0, "curve": "stepped" },
					{ "time": 0.3333, "x": 0, "y": 0 }
				]
			},
			"bone2": {
				"rotate": [
					{ "time": 0, "angle": 0, "curve": "stepped" },
					{ "time": 0.3333, "angle": 0 }
				],
				"translate": [
					{ "time": 0, "x": -1.27, "y": 224.94, "curve": "stepped" },
					{ "time": 0.3333, "x": -1.27, "y": 224.94 }
				],
				"scale": [
					{ "time": 0, "x": 0.603, "y": 1, "curve": "stepped" },
					{ "time": 0.3333, "x": 0.603, "y": 1 }
				],
				"shear": [
					{ "time": 0, "x": 0, "y": 0, "curve": "stepped" },
					{ "time": 0.3333, "x": 0, "y": 0 }
				]
			}
		}
	}
}
}