{"skeleton":{"images":"Sprites/"},
"bones":[{"name":"root"}],
"slots":[
	{"name":"confirm_light_blue","bone":"root","attachment":"confirm_light_blue"},
	{"name":"confirm_light_pink","bone":"root","attachment":"confirm_light_pink"},
	{"name":"confirm_light_off","bone":"root","attachment":"confirm_light_off"},
	{"name":"button_blue","bone":"root","attachment":"button_blue"},
	{"name":"button_pink","bone":"root","attachment":"button_pink"},
	{"name":"elevator","bone":"root","attachment":"elevator"},
	{"name":"circle_back","bone":"root","attachment":"circle_back"},
	{"name":"circle_front","bone":"root","attachment":"circle_front"}
],
"skins":{
	"default":{
		"circle_front":{"circle_front":{"x":2014,"y":398.5,"width":214,"height":43}},
		"circle_back":{"circle_back":{"x":2014,"y":414.5,"width":214,"height":41}},
		"elevator":{"elevator":{"x":2016.5,"y":479,"width":529,"height":918}},
		"button_pink":{"button_pink":{"x":2192,"y":915.5,"width":146,"height":99}},
		"button_blue":{"button_blue":{"x":1842,"y":915.5,"width":146,"height":99}},
		"confirm_light_off":{"confirm_light_off":{"x":2347,"y":1184,"width":234,"height":234}},
		"confirm_light_pink":{"confirm_light_pink":{"x":2347,"y":1184,"width":258,"height":258}},
		"confirm_light_blue":{"confirm_light_blue":{"x":1685,"y":1184,"width":258,"height":258}}
	}
},
"animations":{"animation":{}}
}