{"skeleton":{"images":"Sprites/"},
"bones":[{"name":"root"}],
"slots":[
	{"name":"medbox_inside","bone":"root","attachment":"medbox_inside"},
	{"name":"medbox_door","bone":"root","attachment":"medbox_door"},
	{"name":"med_station","bone":"root","attachment":"med_station"},
	{"name":"med_station_light","bone":"root","attachment":"med_station_light"}
],
"skins":{
	"default":{
		"med_station_light":{"med_station_light":{"x":3109,"y":1130,"width":88,"height":88}},
		"med_station":{"med_station":{"x":3107.5,"y":937,"width":311,"height":488}},
		"medbox_door":{"medbox_door":{"x":2416,"y":986.5,"width":236,"height":239}},
		"medbox_inside":{"medbox_inside":{"x":2416,"y":986.5,"width":236,"height":239}}
	}
},
"animations":{"animation":{}}
}