{
"skeleton": { "hash": "qG7ZHA+2OWVu6sDpebcpNXR1fv0", "spine": "3.6.53", "width": 703.21, "height": 1293, "images": "./Sprites/" },
"bones": [
	{ "name": "root" },
	{ "name": "circle", "parent": "root", "x": -3.72, "y": 42.57 },
	{ "name": "circle2", "parent": "root", "x": -3.72, "y": 42.57 },
	{ "name": "circle3", "parent": "root", "x": -3.72, "y": 42.57 },
	{ "name": "circle4", "parent": "root", "x": -3.72, "y": 42.57 },
	{ "name": "circle5", "parent": "root", "x": -3.72, "y": 42.57 },
	{ "name": "circle6", "parent": "root", "x": -3.72, "y": 42.57 }
],
"slots": [
	{ "name": "confirm_light_blue", "bone": "root", "attachment": "confirm_light_blue" },
	{ "name": "confirm_light_off2", "bone": "root", "attachment": "confirm_light_off" },
	{ "name": "confirm_light_pink", "bone": "root", "attachment": "confirm_light_pink" },
	{ "name": "confirm_light_off", "bone": "root", "attachment": "confirm_light_off" },
	{ "name": "button_blue", "bone": "root", "attachment": "button_blue" },
	{ "name": "button_pink", "bone": "root", "attachment": "button_pink" },
	{ "name": "elevator", "bone": "root", "attachment": "elevator" },
	{ "name": "circle_back", "bone": "circle", "attachment": "circle_back" },
	{ "name": "circle_back2", "bone": "circle2", "attachment": "circle_back" },
	{ "name": "circle_back3", "bone": "circle3", "attachment": "circle_back" },
	{ "name": "circle_back4", "bone": "circle4", "attachment": "circle_back" },
	{ "name": "circle_back5", "bone": "circle5", "attachment": "circle_back" },
	{ "name": "circle_back6", "bone": "circle6", "attachment": "circle_back" },
	{ "name": "circle_front", "bone": "circle", "attachment": "circle_front" },
	{ "name": "circle_front2", "bone": "circle2", "attachment": "circle_front" },
	{ "name": "circle_front3", "bone": "circle3", "attachment": "circle_front" },
	{ "name": "circle_front4", "bone": "circle4", "attachment": "circle_front" },
	{ "name": "circle_front5", "bone": "circle5", "attachment": "circle_front" },
	{ "name": "circle_front6", "bone": "circle6", "attachment": "circle_front" }
],
"skins": {
	"default": {
		"button_blue": {
			"button_blue": { "x": -179.89, "y": 895.5, "width": 146, "height": 99 }
		},
		"button_pink": {
			"button_pink": { "x": 170.11, "y": 895.5, "width": 146, "height": 99 }
		},
		"circle_back": {
			"circle_back": { "x": -4.17, "y": 11.38, "width": 214, "height": 41 }
		},
		"circle_back2": {
			"circle_back": { "x": -4.17, "y": 11.38, "width": 214, "height": 41 }
		},
		"circle_back3": {
			"circle_back": { "x": -4.17, "y": 11.38, "width": 214, "height": 41 }
		},
		"circle_back4": {
			"circle_back": { "x": -4.17, "y": 11.38, "width": 214, "height": 41 }
		},
		"circle_back5": {
			"circle_back": { "x": -4.17, "y": 11.38, "width": 214, "height": 41 }
		},
		"circle_back6": {
			"circle_back": { "x": -4.17, "y": 11.38, "width": 214, "height": 41 }
		},
		"circle_front": {
			"circle_front": { "x": -4.17, "y": -4.62, "width": 214, "height": 43 }
		},
		"circle_front2": {
			"circle_front": { "x": -4.17, "y": -4.62, "width": 214, "height": 43 }
		},
		"circle_front3": {
			"circle_front": { "x": -4.17, "y": -4.62, "width": 214, "height": 43 }
		},
		"circle_front4": {
			"circle_front": { "x": -4.17, "y": -4.62, "width": 214, "height": 43 }
		},
		"circle_front5": {
			"circle_front": { "x": -4.17, "y": -4.62, "width": 214, "height": 43 }
		},
		"circle_front6": {
			"circle_front": { "x": -4.17, "y": -4.62, "width": 214, "height": 43 }
		},
		"confirm_light_blue": {
			"confirm_light_blue": { "x": -227.09, "y": 1164, "width": 258, "height": 258 }
		},
		"confirm_light_off": {
			"confirm_light_off": { "x": 218.11, "y": 1164, "width": 234, "height": 234 }
		},
		"confirm_light_off2": {
			"confirm_light_off": { "x": -227.09, "y": 1164, "width": 234, "height": 234 }
		},
		"confirm_light_pink": {
			"confirm_light_pink": { "x": 218.11, "y": 1164, "width": 258, "height": 258 }
		},
		"elevator": {
			"elevator": { "x": -5.39, "y": 459, "width": 529, "height": 918 }
		}
	}
},
"animations": {
	"elevator_back": {
		"slots": {
			"circle_back": {
				"color": [
					{ "time": 0, "color": "ffffff00" },
					{ "time": 0.2333, "color": "ffffffff", "curve": "stepped" },
					{ "time": 2.4, "color": "ffffffff" },
					{ "time": 2.6, "color": "ffffff00", "curve": "stepped" },
					{ "time": 2.6667, "color": "ffffff00" }
				]
			},
			"circle_back2": {
				"color": [
					{ "time": 0, "color": "ffffffff", "curve": "stepped" },
					{ "time": 0.1667, "color": "ffffffff" },
					{ "time": 0.4, "color": "ffffff00", "curve": "stepped" },
					{ "time": 0.4333, "color": "ffffff00" },
					{ "time": 0.6667, "color": "ffffffff", "curve": "stepped" },
					{ "time": 2.6667, "color": "ffffffff" }
				]
			},
			"circle_back3": {
				"color": [
					{ "time": 0, "color": "ffffffff", "curve": "stepped" },
					{ "time": 0.6333, "color": "ffffffff" },
					{ "time": 0.8333, "color": "ffffff00", "curve": "stepped" },
					{ "time": 0.9, "color": "ffffff00" },
					{ "time": 1.1, "color": "ffffffff", "curve": "stepped" },
					{ "time": 2.6667, "color": "ffffffff" }
				]
			},
			"circle_back4": {
				"color": [
					{ "time": 0, "color": "ffffffff", "curve": "stepped" },
					{ "time": 1.0667, "color": "ffffffff" },
					{ "time": 1.3, "color": "ffffff00", "curve": "stepped" },
					{ "time": 1.3333, "color": "ffffff00" },
					{ "time": 1.5333, "color": "ffffffff", "curve": "stepped" },
					{ "time": 2.6667, "color": "ffffffff" }
				]
			},
			"circle_back5": {
				"color": [
					{ "time": 0, "color": "ffffffff", "curve": "stepped" },
					{ "time": 1.5, "color": "ffffffff" },
					{ "time": 1.7333, "color": "ffffff00", "curve": "stepped" },
					{ "time": 1.7667, "color": "ffffff00" },
					{ "time": 2, "color": "ffffffff", "curve": "stepped" },
					{ "time": 2.6667, "color": "ffffffff" }
				]
			},
			"circle_back6": {
				"color": [
					{ "time": 0, "color": "ffffffff", "curve": "stepped" },
					{ "time": 1.9333, "color": "ffffffff" },
					{ "time": 2.1667, "color": "ffffff00", "curve": "stepped" },
					{ "time": 2.2, "color": "ffffff00" },
					{ "time": 2.4333, "color": "ffffffff", "curve": "stepped" },
					{ "time": 2.6667, "color": "ffffffff" }
				]
			},
			"circle_front": {
				"color": [
					{ "time": 0, "color": "ffffff00" },
					{ "time": 0.2333, "color": "ffffffff", "curve": "stepped" },
					{ "time": 2.4, "color": "ffffffff" },
					{ "time": 2.6, "color": "ffffff00", "curve": "stepped" },
					{ "time": 2.6667, "color": "ffffff00" }
				],
				"attachment": [
					{ "time": 0, "name": null },
					{ "time": 2.6, "name": "circle_front" },
					{ "time": 2.6667, "name": "circle_front" }
				]
			},
			"circle_front2": {
				"color": [
					{ "time": 0, "color": "ffffffff", "curve": "stepped" },
					{ "time": 0.1667, "color": "ffffffff" },
					{ "time": 0.4, "color": "ffffff00", "curve": "stepped" },
					{ "time": 0.4333, "color": "ffffff00" },
					{ "time": 0.6667, "color": "ffffffff", "curve": "stepped" },
					{ "time": 2.6667, "color": "ffffffff" }
				],
				"attachment": [
					{ "time": 0, "name": null }
				]
			},
			"circle_front3": {
				"color": [
					{ "time": 0, "color": "ffffffff", "curve": "stepped" },
					{ "time": 0.6333, "color": "ffffffff" },
					{ "time": 0.8333, "color": "ffffff00", "curve": "stepped" },
					{ "time": 0.9, "color": "ffffff00" },
					{ "time": 1.1, "color": "ffffffff", "curve": "stepped" },
					{ "time": 2.6667, "color": "ffffffff" }
				],
				"attachment": [
					{ "time": 0, "name": null }
				]
			},
			"circle_front4": {
				"color": [
					{ "time": 0, "color": "ffffffff", "curve": "stepped" },
					{ "time": 1.0667, "color": "ffffffff" },
					{ "time": 1.3, "color": "ffffff00", "curve": "stepped" },
					{ "time": 1.3333, "color": "ffffff00" },
					{ "time": 1.5333, "color": "ffffffff", "curve": "stepped" },
					{ "time": 2.6667, "color": "ffffffff" }
				],
				"attachment": [
					{ "time": 0, "name": null }
				]
			},
			"circle_front5": {
				"color": [
					{ "time": 0, "color": "ffffffff", "curve": "stepped" },
					{ "time": 1.5, "color": "ffffffff" },
					{ "time": 1.7333, "color": "ffffff00", "curve": "stepped" },
					{ "time": 1.7667, "color": "ffffff00" },
					{ "time": 2, "color": "ffffffff", "curve": "stepped" },
					{ "time": 2.6667, "color": "ffffffff" }
				],
				"attachment": [
					{ "time": 0, "name": null }
				]
			},
			"circle_front6": {
				"color": [
					{ "time": 0, "color": "ffffffff", "curve": "stepped" },
					{ "time": 1.9333, "color": "ffffffff" },
					{ "time": 2.1667, "color": "ffffff00", "curve": "stepped" },
					{ "time": 2.2, "color": "ffffff00" },
					{ "time": 2.4333, "color": "ffffffff", "curve": "stepped" },
					{ "time": 2.6667, "color": "ffffffff" }
				],
				"attachment": [
					{ "time": 0, "name": null }
				]
			},
			"confirm_light_blue": {
				"attachment": [
					{ "time": 0, "name": null }
				]
			},
			"confirm_light_off": {
				"attachment": [
					{ "time": 0, "name": "confirm_light_off" }
				]
			},
			"confirm_light_off2": {
				"attachment": [
					{ "time": 0, "name": "confirm_light_off" }
				]
			},
			"confirm_light_pink": {
				"attachment": [
					{ "time": 0, "name": null }
				]
			}
		},
		"bones": {
			"circle": {
				"rotate": [
					{ "time": 0, "angle": 0, "curve": "stepped" },
					{ "time": 2.6, "angle": 0, "curve": "stepped" },
					{ "time": 2.6667, "angle": 0 }
				],
				"translate": [
					{ "time": 0, "x": 0, "y": 0 },
					{ "time": 2.6, "x": 0, "y": 860.7 },
					{ "time": 2.6667, "x": 0, "y": 0 }
				],
				"scale": [
					{ "time": 0, "x": 1, "y": 1, "curve": "stepped" },
					{ "time": 2.6, "x": 1, "y": 1, "curve": "stepped" },
					{ "time": 2.6667, "x": 1, "y": 1 }
				],
				"shear": [
					{ "time": 0, "x": 0, "y": 0, "curve": "stepped" },
					{ "time": 2.6, "x": 0, "y": 0, "curve": "stepped" },
					{ "time": 2.6667, "x": 0, "y": 0 }
				]
			},
			"circle2": {
				"rotate": [
					{ "time": 0, "angle": 0, "curve": "stepped" },
					{ "time": 0.4, "angle": 0, "curve": "stepped" },
					{ "time": 0.4333, "angle": 0, "curve": "stepped" },
					{ "time": 2.6667, "angle": 0 }
				],
				"translate": [
					{ "time": 0, "x": 0, "y": 729.41 },
					{ "time": 0.4, "x": 0, "y": 860.7 },
					{ "time": 0.4333, "x": 0, "y": 0 },
					{ "time": 2.6667, "x": 0, "y": 729.41 }
				],
				"scale": [
					{ "time": 0, "x": 1, "y": 1, "curve": "stepped" },
					{ "time": 0.4, "x": 1, "y": 1, "curve": "stepped" },
					{ "time": 0.4333, "x": 1, "y": 1, "curve": "stepped" },
					{ "time": 2.6667, "x": 1, "y": 1 }
				],
				"shear": [
					{ "time": 0, "x": 0, "y": 0, "curve": "stepped" },
					{ "time": 0.4, "x": 0, "y": 0, "curve": "stepped" },
					{ "time": 0.4333, "x": 0, "y": 0, "curve": "stepped" },
					{ "time": 2.6667, "x": 0, "y": 0 }
				]
			},
			"circle3": {
				"rotate": [
					{ "time": 0, "angle": 0, "curve": "stepped" },
					{ "time": 0.8333, "angle": 0, "curve": "stepped" },
					{ "time": 0.9, "angle": 0, "curve": "stepped" },
					{ "time": 2.6667, "angle": 0 }
				],
				"translate": [
					{ "time": 0, "x": 0, "y": 583.53 },
					{ "time": 0.8333, "x": 0, "y": 860.7 },
					{ "time": 0.9, "x": 0, "y": 0 },
					{ "time": 2.6667, "x": 0, "y": 583.53 }
				],
				"scale": [
					{ "time": 0, "x": 1, "y": 1, "curve": "stepped" },
					{ "time": 0.8333, "x": 1, "y": 1, "curve": "stepped" },
					{ "time": 0.9, "x": 1, "y": 1, "curve": "stepped" },
					{ "time": 2.6667, "x": 1, "y": 1 }
				],
				"shear": [
					{ "time": 0, "x": 0, "y": 0, "curve": "stepped" },
					{ "time": 0.8333, "x": 0, "y": 0, "curve": "stepped" },
					{ "time": 0.9, "x": 0, "y": 0, "curve": "stepped" },
					{ "time": 2.6667, "x": 0, "y": 0 }
				]
			},
			"circle4": {
				"rotate": [
					{ "time": 0, "angle": 0, "curve": "stepped" },
					{ "time": 1.3, "angle": 0, "curve": "stepped" },
					{ "time": 1.3333, "angle": 0, "curve": "stepped" },
					{ "time": 2.6667, "angle": 0 }
				],
				"translate": [
					{ "time": 0, "x": 0, "y": 437.64 },
					{ "time": 1.3, "x": 0, "y": 860.7 },
					{ "time": 1.3333, "x": 0, "y": 0 },
					{ "time": 2.6667, "x": 0, "y": 437.64 }
				],
				"scale": [
					{ "time": 0, "x": 1, "y": 1, "curve": "stepped" },
					{ "time": 1.3, "x": 1, "y": 1, "curve": "stepped" },
					{ "time": 1.3333, "x": 1, "y": 1, "curve": "stepped" },
					{ "time": 2.6667, "x": 1, "y": 1 }
				],
				"shear": [
					{ "time": 0, "x": 0, "y": 0, "curve": "stepped" },
					{ "time": 1.3, "x": 0, "y": 0, "curve": "stepped" },
					{ "time": 1.3333, "x": 0, "y": 0, "curve": "stepped" },
					{ "time": 2.6667, "x": 0, "y": 0 }
				]
			},
			"circle5": {
				"rotate": [
					{ "time": 0, "angle": 0, "curve": "stepped" },
					{ "time": 1.7333, "angle": 0, "curve": "stepped" },
					{ "time": 1.7667, "angle": 0, "curve": "stepped" },
					{ "time": 2.6667, "angle": 0 }
				],
				"translate": [
					{ "time": 0, "x": 0, "y": 291.76 },
					{ "time": 1.7333, "x": 0, "y": 860.7 },
					{ "time": 1.7667, "x": 0, "y": 0 },
					{ "time": 2.6667, "x": 0, "y": 291.76 }
				],
				"scale": [
					{ "time": 0, "x": 1, "y": 1, "curve": "stepped" },
					{ "time": 1.7333, "x": 1, "y": 1, "curve": "stepped" },
					{ "time": 1.7667, "x": 1, "y": 1, "curve": "stepped" },
					{ "time": 2.6667, "x": 1, "y": 1 }
				],
				"shear": [
					{ "time": 0, "x": 0, "y": 0, "curve": "stepped" },
					{ "time": 1.7333, "x": 0, "y": 0, "curve": "stepped" },
					{ "time": 1.7667, "x": 0, "y": 0, "curve": "stepped" },
					{ "time": 2.6667, "x": 0, "y": 0 }
				]
			},
			"circle6": {
				"rotate": [
					{ "time": 0, "angle": 0, "curve": "stepped" },
					{ "time": 2.1667, "angle": 0, "curve": "stepped" },
					{ "time": 2.2, "angle": 0, "curve": "stepped" },
					{ "time": 2.6667, "angle": 0 }
				],
				"translate": [
					{ "time": 0, "x": 0, "y": 145.88 },
					{ "time": 2.1667, "x": 0, "y": 860.7 },
					{ "time": 2.2, "x": 0, "y": 0 },
					{ "time": 2.6667, "x": 0, "y": 145.88 }
				],
				"scale": [
					{ "time": 0, "x": 1, "y": 1, "curve": "stepped" },
					{ "time": 2.1667, "x": 1, "y": 1, "curve": "stepped" },
					{ "time": 2.2, "x": 1, "y": 1, "curve": "stepped" },
					{ "time": 2.6667, "x": 1, "y": 1 }
				],
				"shear": [
					{ "time": 0, "x": 0, "y": 0, "curve": "stepped" },
					{ "time": 2.1667, "x": 0, "y": 0, "curve": "stepped" },
					{ "time": 2.2, "x": 0, "y": 0, "curve": "stepped" },
					{ "time": 2.6667, "x": 0, "y": 0 }
				]
			}
		}
	},
	"elevator_back_off": {
		"slots": {
			"circle_back": {
				"color": [
					{ "time": 0, "color": "ffffff00" }
				]
			},
			"circle_back2": {
				"color": [
					{ "time": 0, "color": "ffffff00" }
				]
			},
			"circle_back3": {
				"color": [
					{ "time": 0, "color": "ffffff00" }
				]
			},
			"circle_back4": {
				"color": [
					{ "time": 0, "color": "ffffff00" }
				]
			},
			"circle_back5": {
				"color": [
					{ "time": 0, "color": "ffffff00" }
				]
			},
			"circle_back6": {
				"color": [
					{ "time": 0, "color": "ffffff00" }
				]
			},
			"confirm_light_blue": {
				"attachment": [
					{ "time": 0, "name": null }
				]
			},
			"confirm_light_off": {
				"attachment": [
					{ "time": 0, "name": "confirm_light_off" }
				]
			},
			"confirm_light_off2": {
				"attachment": [
					{ "time": 0, "name": "confirm_light_off" }
				]
			},
			"confirm_light_pink": {
				"attachment": [
					{ "time": 0, "name": null }
				]
			}
		}
	},
	"elevator_front": {
		"slots": {
			"button_blue": {
				"attachment": [
					{ "time": 0, "name": null }
				]
			},
			"button_pink": {
				"attachment": [
					{ "time": 0, "name": null }
				]
			},
			"circle_back": {
				"color": [
					{ "time": 0, "color": "ffffff00" },
					{ "time": 0.2333, "color": "ffffffff", "curve": "stepped" },
					{ "time": 2.4, "color": "ffffffff" },
					{ "time": 2.6, "color": "ffffff00", "curve": "stepped" },
					{ "time": 2.6667, "color": "ffffff00" }
				],
				"attachment": [
					{ "time": 0, "name": null }
				]
			},
			"circle_back2": {
				"color": [
					{ "time": 0, "color": "ffffffff", "curve": "stepped" },
					{ "time": 0.1667, "color": "ffffffff" },
					{ "time": 0.4, "color": "ffffff00", "curve": "stepped" },
					{ "time": 0.4333, "color": "ffffff00" },
					{ "time": 0.6667, "color": "ffffffff", "curve": "stepped" },
					{ "time": 2.6667, "color": "ffffffff" }
				],
				"attachment": [
					{ "time": 0, "name": null }
				]
			},
			"circle_back3": {
				"color": [
					{ "time": 0, "color": "ffffffff", "curve": "stepped" },
					{ "time": 0.6333, "color": "ffffffff" },
					{ "time": 0.8333, "color": "ffffff00", "curve": "stepped" },
					{ "time": 0.9, "color": "ffffff00" },
					{ "time": 1.1, "color": "ffffffff", "curve": "stepped" },
					{ "time": 2.6667, "color": "ffffffff" }
				],
				"attachment": [
					{ "time": 0, "name": null }
				]
			},
			"circle_back4": {
				"color": [
					{ "time": 0, "color": "ffffffff", "curve": "stepped" },
					{ "time": 1.0667, "color": "ffffffff" },
					{ "time": 1.3, "color": "ffffff00", "curve": "stepped" },
					{ "time": 1.3333, "color": "ffffff00" },
					{ "time": 1.5333, "color": "ffffffff", "curve": "stepped" },
					{ "time": 2.6667, "color": "ffffffff" }
				],
				"attachment": [
					{ "time": 0, "name": null }
				]
			},
			"circle_back5": {
				"color": [
					{ "time": 0, "color": "ffffffff", "curve": "stepped" },
					{ "time": 1.5, "color": "ffffffff" },
					{ "time": 1.7333, "color": "ffffff00", "curve": "stepped" },
					{ "time": 1.7667, "color": "ffffff00" },
					{ "time": 2, "color": "ffffffff", "curve": "stepped" },
					{ "time": 2.6667, "color": "ffffffff" }
				],
				"attachment": [
					{ "time": 0, "name": null }
				]
			},
			"circle_back6": {
				"color": [
					{ "time": 0, "color": "ffffffff", "curve": "stepped" },
					{ "time": 1.9333, "color": "ffffffff" },
					{ "time": 2.1667, "color": "ffffff00", "curve": "stepped" },
					{ "time": 2.2, "color": "ffffff00" },
					{ "time": 2.4333, "color": "ffffffff", "curve": "stepped" },
					{ "time": 2.6667, "color": "ffffffff" }
				],
				"attachment": [
					{ "time": 0, "name": null }
				]
			},
			"circle_front": {
				"color": [
					{ "time": 0, "color": "ffffff00" },
					{ "time": 0.2333, "color": "ffffffff", "curve": "stepped" },
					{ "time": 2.4, "color": "ffffffff" },
					{ "time": 2.6, "color": "ffffff00", "curve": "stepped" },
					{ "time": 2.6667, "color": "ffffff00" }
				],
				"attachment": [
					{ "time": 2.6, "name": "circle_front" },
					{ "time": 2.6667, "name": "circle_front" }
				]
			},
			"circle_front2": {
				"color": [
					{ "time": 0, "color": "ffffffff", "curve": "stepped" },
					{ "time": 0.1667, "color": "ffffffff" },
					{ "time": 0.4, "color": "ffffff00", "curve": "stepped" },
					{ "time": 0.4333, "color": "ffffff00" },
					{ "time": 0.6667, "color": "ffffffff", "curve": "stepped" },
					{ "time": 2.6667, "color": "ffffffff" }
				]
			},
			"circle_front3": {
				"color": [
					{ "time": 0, "color": "ffffffff", "curve": "stepped" },
					{ "time": 0.6333, "color": "ffffffff" },
					{ "time": 0.8333, "color": "ffffff00", "curve": "stepped" },
					{ "time": 0.9, "color": "ffffff00" },
					{ "time": 1.1, "color": "ffffffff", "curve": "stepped" },
					{ "time": 2.6667, "color": "ffffffff" }
				]
			},
			"circle_front4": {
				"color": [
					{ "time": 0, "color": "ffffffff", "curve": "stepped" },
					{ "time": 1.0667, "color": "ffffffff" },
					{ "time": 1.3, "color": "ffffff00", "curve": "stepped" },
					{ "time": 1.3333, "color": "ffffff00" },
					{ "time": 1.5333, "color": "ffffffff", "curve": "stepped" },
					{ "time": 2.6667, "color": "ffffffff" }
				]
			},
			"circle_front5": {
				"color": [
					{ "time": 0, "color": "ffffffff", "curve": "stepped" },
					{ "time": 1.5, "color": "ffffffff" },
					{ "time": 1.7333, "color": "ffffff00", "curve": "stepped" },
					{ "time": 1.7667, "color": "ffffff00" },
					{ "time": 2, "color": "ffffffff", "curve": "stepped" },
					{ "time": 2.6667, "color": "ffffffff" }
				]
			},
			"circle_front6": {
				"color": [
					{ "time": 0, "color": "ffffffff", "curve": "stepped" },
					{ "time": 1.9333, "color": "ffffffff" },
					{ "time": 2.1667, "color": "ffffff00", "curve": "stepped" },
					{ "time": 2.2, "color": "ffffff00" },
					{ "time": 2.4333, "color": "ffffffff", "curve": "stepped" },
					{ "time": 2.6667, "color": "ffffffff" }
				]
			},
			"confirm_light_blue": {
				"attachment": [
					{ "time": 0, "name": null }
				]
			},
			"confirm_light_off": {
				"attachment": [
					{ "time": 0, "name": null }
				]
			},
			"confirm_light_off2": {
				"attachment": [
					{ "time": 0, "name": null }
				]
			},
			"confirm_light_pink": {
				"attachment": [
					{ "time": 0, "name": null }
				]
			},
			"elevator": {
				"attachment": [
					{ "time": 0, "name": null }
				]
			}
		},
		"bones": {
			"circle": {
				"rotate": [
					{ "time": 0, "angle": 0, "curve": "stepped" },
					{ "time": 2.6, "angle": 0, "curve": "stepped" },
					{ "time": 2.6667, "angle": 0 }
				],
				"translate": [
					{ "time": 0, "x": 0, "y": 0 },
					{ "time": 2.6, "x": 0, "y": 860.7 },
					{ "time": 2.6667, "x": 0, "y": 0 }
				],
				"scale": [
					{ "time": 0, "x": 1, "y": 1, "curve": "stepped" },
					{ "time": 2.6, "x": 1, "y": 1, "curve": "stepped" },
					{ "time": 2.6667, "x": 1, "y": 1 }
				],
				"shear": [
					{ "time": 0, "x": 0, "y": 0, "curve": "stepped" },
					{ "time": 2.6, "x": 0, "y": 0, "curve": "stepped" },
					{ "time": 2.6667, "x": 0, "y": 0 }
				]
			},
			"circle2": {
				"rotate": [
					{ "time": 0, "angle": 0, "curve": "stepped" },
					{ "time": 0.4, "angle": 0, "curve": "stepped" },
					{ "time": 0.4333, "angle": 0, "curve": "stepped" },
					{ "time": 2.6667, "angle": 0 }
				],
				"translate": [
					{ "time": 0, "x": 0, "y": 729.41 },
					{ "time": 0.4, "x": 0, "y": 860.7 },
					{ "time": 0.4333, "x": 0, "y": 0 },
					{ "time": 2.6667, "x": 0, "y": 729.41 }
				],
				"scale": [
					{ "time": 0, "x": 1, "y": 1, "curve": "stepped" },
					{ "time": 0.4, "x": 1, "y": 1, "curve": "stepped" },
					{ "time": 0.4333, "x": 1, "y": 1, "curve": "stepped" },
					{ "time": 2.6667, "x": 1, "y": 1 }
				],
				"shear": [
					{ "time": 0, "x": 0, "y": 0, "curve": "stepped" },
					{ "time": 0.4, "x": 0, "y": 0, "curve": "stepped" },
					{ "time": 0.4333, "x": 0, "y": 0, "curve": "stepped" },
					{ "time": 2.6667, "x": 0, "y": 0 }
				]
			},
			"circle3": {
				"rotate": [
					{ "time": 0, "angle": 0, "curve": "stepped" },
					{ "time": 0.8333, "angle": 0, "curve": "stepped" },
					{ "time": 0.9, "angle": 0, "curve": "stepped" },
					{ "time": 2.6667, "angle": 0 }
				],
				"translate": [
					{ "time": 0, "x": 0, "y": 583.53 },
					{ "time": 0.8333, "x": 0, "y": 860.7 },
					{ "time": 0.9, "x": 0, "y": 0 },
					{ "time": 2.6667, "x": 0, "y": 583.53 }
				],
				"scale": [
					{ "time": 0, "x": 1, "y": 1, "curve": "stepped" },
					{ "time": 0.8333, "x": 1, "y": 1, "curve": "stepped" },
					{ "time": 0.9, "x": 1, "y": 1, "curve": "stepped" },
					{ "time": 2.6667, "x": 1, "y": 1 }
				],
				"shear": [
					{ "time": 0, "x": 0, "y": 0, "curve": "stepped" },
					{ "time": 0.8333, "x": 0, "y": 0, "curve": "stepped" },
					{ "time": 0.9, "x": 0, "y": 0, "curve": "stepped" },
					{ "time": 2.6667, "x": 0, "y": 0 }
				]
			},
			"circle4": {
				"rotate": [
					{ "time": 0, "angle": 0, "curve": "stepped" },
					{ "time": 1.3, "angle": 0, "curve": "stepped" },
					{ "time": 1.3333, "angle": 0, "curve": "stepped" },
					{ "time": 2.6667, "angle": 0 }
				],
				"translate": [
					{ "time": 0, "x": 0, "y": 437.64 },
					{ "time": 1.3, "x": 0, "y": 860.7 },
					{ "time": 1.3333, "x": 0, "y": 0 },
					{ "time": 2.6667, "x": 0, "y": 437.64 }
				],
				"scale": [
					{ "time": 0, "x": 1, "y": 1, "curve": "stepped" },
					{ "time": 1.3, "x": 1, "y": 1, "curve": "stepped" },
					{ "time": 1.3333, "x": 1, "y": 1, "curve": "stepped" },
					{ "time": 2.6667, "x": 1, "y": 1 }
				],
				"shear": [
					{ "time": 0, "x": 0, "y": 0, "curve": "stepped" },
					{ "time": 1.3, "x": 0, "y": 0, "curve": "stepped" },
					{ "time": 1.3333, "x": 0, "y": 0, "curve": "stepped" },
					{ "time": 2.6667, "x": 0, "y": 0 }
				]
			},
			"circle5": {
				"rotate": [
					{ "time": 0, "angle": 0, "curve": "stepped" },
					{ "time": 1.7333, "angle": 0, "curve": "stepped" },
					{ "time": 1.7667, "angle": 0, "curve": "stepped" },
					{ "time": 2.6667, "angle": 0 }
				],
				"translate": [
					{ "time": 0, "x": 0, "y": 291.76 },
					{ "time": 1.7333, "x": 0, "y": 860.7 },
					{ "time": 1.7667, "x": 0, "y": 0 },
					{ "time": 2.6667, "x": 0, "y": 291.76 }
				],
				"scale": [
					{ "time": 0, "x": 1, "y": 1, "curve": "stepped" },
					{ "time": 1.7333, "x": 1, "y": 1, "curve": "stepped" },
					{ "time": 1.7667, "x": 1, "y": 1, "curve": "stepped" },
					{ "time": 2.6667, "x": 1, "y": 1 }
				],
				"shear": [
					{ "time": 0, "x": 0, "y": 0, "curve": "stepped" },
					{ "time": 1.7333, "x": 0, "y": 0, "curve": "stepped" },
					{ "time": 1.7667, "x": 0, "y": 0, "curve": "stepped" },
					{ "time": 2.6667, "x": 0, "y": 0 }
				]
			},
			"circle6": {
				"rotate": [
					{ "time": 0, "angle": 0, "curve": "stepped" },
					{ "time": 2.1667, "angle": 0, "curve": "stepped" },
					{ "time": 2.2, "angle": 0, "curve": "stepped" },
					{ "time": 2.6667, "angle": 0 }
				],
				"translate": [
					{ "time": 0, "x": 0, "y": 145.88 },
					{ "time": 2.1667, "x": 0, "y": 860.7 },
					{ "time": 2.2, "x": 0, "y": 0 },
					{ "time": 2.6667, "x": 0, "y": 145.88 }
				],
				"scale": [
					{ "time": 0, "x": 1, "y": 1, "curve": "stepped" },
					{ "time": 2.1667, "x": 1, "y": 1, "curve": "stepped" },
					{ "time": 2.2, "x": 1, "y": 1, "curve": "stepped" },
					{ "time": 2.6667, "x": 1, "y": 1 }
				],
				"shear": [
					{ "time": 0, "x": 0, "y": 0, "curve": "stepped" },
					{ "time": 2.1667, "x": 0, "y": 0, "curve": "stepped" },
					{ "time": 2.2, "x": 0, "y": 0, "curve": "stepped" },
					{ "time": 2.6667, "x": 0, "y": 0 }
				]
			}
		}
	},
	"elevator_front_off": {
		"slots": {
			"button_blue": {
				"attachment": [
					{ "time": 0, "name": null }
				]
			},
			"button_pink": {
				"attachment": [
					{ "time": 0, "name": null }
				]
			},
			"circle_back": {
				"attachment": [
					{ "time": 0, "name": null }
				]
			},
			"circle_back2": {
				"attachment": [
					{ "time": 0, "name": null }
				]
			},
			"circle_back3": {
				"attachment": [
					{ "time": 0, "name": null }
				]
			},
			"circle_back4": {
				"attachment": [
					{ "time": 0, "name": null }
				]
			},
			"circle_back5": {
				"attachment": [
					{ "time": 0, "name": null }
				]
			},
			"circle_back6": {
				"attachment": [
					{ "time": 0, "name": null }
				]
			},
			"circle_front": {
				"color": [
					{ "time": 0, "color": "ffffff00" }
				],
				"attachment": [
					{ "time": 0, "name": "circle_front" }
				]
			},
			"circle_front2": {
				"color": [
					{ "time": 0, "color": "ffffff00" }
				],
				"attachment": [
					{ "time": 0, "name": "circle_front" }
				]
			},
			"circle_front3": {
				"color": [
					{ "time": 0, "color": "ffffff00" }
				],
				"attachment": [
					{ "time": 0, "name": "circle_front" }
				]
			},
			"circle_front4": {
				"color": [
					{ "time": 0, "color": "ffffff00" }
				],
				"attachment": [
					{ "time": 0, "name": "circle_front" }
				]
			},
			"circle_front5": {
				"color": [
					{ "time": 0, "color": "ffffff00" }
				],
				"attachment": [
					{ "time": 0, "name": "circle_front" }
				]
			},
			"circle_front6": {
				"color": [
					{ "time": 0, "color": "ffffff00" }
				],
				"attachment": [
					{ "time": 0, "name": "circle_front" }
				]
			},
			"confirm_light_blue": {
				"attachment": [
					{ "time": 0, "name": null }
				]
			},
			"confirm_light_off": {
				"attachment": [
					{ "time": 0, "name": null }
				]
			},
			"confirm_light_off2": {
				"attachment": [
					{ "time": 0, "name": null }
				]
			},
			"confirm_light_pink": {
				"attachment": [
					{ "time": 0, "name": null }
				]
			},
			"elevator": {
				"attachment": [
					{ "time": 0, "name": null }
				]
			}
		}
	},
	"light_blue_on": {
		"slots": {
			"button_blue": {
				"attachment": [
					{ "time": 0, "name": null },
					{ "time": 0.1667, "name": null }
				]
			},
			"button_pink": {
				"attachment": [
					{ "time": 0, "name": null },
					{ "time": 0.1667, "name": null }
				]
			},
			"circle_back": {
				"attachment": [
					{ "time": 0, "name": null }
				]
			},
			"circle_back2": {
				"attachment": [
					{ "time": 0, "name": null }
				]
			},
			"circle_back3": {
				"attachment": [
					{ "time": 0, "name": null }
				]
			},
			"circle_back4": {
				"attachment": [
					{ "time": 0, "name": null }
				]
			},
			"circle_back5": {
				"attachment": [
					{ "time": 0, "name": null }
				]
			},
			"circle_back6": {
				"attachment": [
					{ "time": 0, "name": null }
				]
			},
			"circle_front": {
				"attachment": [
					{ "time": 0, "name": null }
				]
			},
			"circle_front2": {
				"attachment": [
					{ "time": 0, "name": null }
				]
			},
			"circle_front3": {
				"attachment": [
					{ "time": 0, "name": null }
				]
			},
			"circle_front4": {
				"attachment": [
					{ "time": 0, "name": null }
				]
			},
			"circle_front5": {
				"attachment": [
					{ "time": 0, "name": null }
				]
			},
			"circle_front6": {
				"attachment": [
					{ "time": 0, "name": null }
				]
			},
			"confirm_light_off": {
				"attachment": [
					{ "time": 0, "name": null },
					{ "time": 0.1667, "name": null }
				]
			},
			"confirm_light_off2": {
				"attachment": [
					{ "time": 0, "name": null },
					{ "time": 0.1667, "name": null }
				]
			},
			"confirm_light_pink": {
				"attachment": [
					{ "time": 0, "name": null },
					{ "time": 0.1667, "name": null }
				]
			},
			"elevator": {
				"attachment": [
					{ "time": 0, "name": null },
					{ "time": 0.1667, "name": null }
				]
			}
		}
	},
	"light_blue_switchoff": {
		"slots": {
			"button_blue": {
				"attachment": [
					{ "time": 0, "name": null },
					{ "time": 0.1667, "name": null }
				]
			},
			"button_pink": {
				"attachment": [
					{ "time": 0, "name": null },
					{ "time": 0.1667, "name": null }
				]
			},
			"circle_back": {
				"attachment": [
					{ "time": 0, "name": null },
					{ "time": 0.1667, "name": null }
				]
			},
			"circle_back2": {
				"attachment": [
					{ "time": 0, "name": null },
					{ "time": 0.1667, "name": null }
				]
			},
			"circle_back3": {
				"attachment": [
					{ "time": 0, "name": null },
					{ "time": 0.1667, "name": null }
				]
			},
			"circle_back4": {
				"attachment": [
					{ "time": 0, "name": null },
					{ "time": 0.1667, "name": null }
				]
			},
			"circle_back5": {
				"attachment": [
					{ "time": 0, "name": null },
					{ "time": 0.1667, "name": null }
				]
			},
			"circle_back6": {
				"attachment": [
					{ "time": 0, "name": null },
					{ "time": 0.1667, "name": null }
				]
			},
			"circle_front": {
				"attachment": [
					{ "time": 0, "name": null },
					{ "time": 0.1667, "name": null }
				]
			},
			"circle_front2": {
				"attachment": [
					{ "time": 0, "name": null },
					{ "time": 0.1667, "name": null }
				]
			},
			"circle_front3": {
				"attachment": [
					{ "time": 0, "name": null },
					{ "time": 0.1667, "name": null }
				]
			},
			"circle_front4": {
				"attachment": [
					{ "time": 0, "name": null },
					{ "time": 0.1667, "name": null }
				]
			},
			"circle_front5": {
				"attachment": [
					{ "time": 0, "name": null },
					{ "time": 0.1667, "name": null }
				]
			},
			"circle_front6": {
				"attachment": [
					{ "time": 0, "name": null },
					{ "time": 0.1667, "name": null }
				]
			},
			"confirm_light_blue": {
				"color": [
					{ "time": 0, "color": "ffffffff" },
					{ "time": 0.1667, "color": "ffffff00" }
				],
				"attachment": [
					{ "time": 0.1667, "name": null }
				]
			},
			"confirm_light_off": {
				"attachment": [
					{ "time": 0, "name": null },
					{ "time": 0.1667, "name": null }
				]
			},
			"confirm_light_off2": {
				"attachment": [
					{ "time": 0, "name": null },
					{ "time": 0.1667, "name": null }
				]
			},
			"confirm_light_pink": {
				"color": [
					{ "time": 0, "color": "ffffffff" },
					{ "time": 0.1667, "color": "ffffff00" }
				],
				"attachment": [
					{ "time": 0, "name": null },
					{ "time": 0.1667, "name": "confirm_light_pink" }
				]
			},
			"elevator": {
				"attachment": [
					{ "time": 0, "name": null },
					{ "time": 0.1667, "name": null }
				]
			}
		}
	},
	"light_blue_switchon": {
		"slots": {
			"button_blue": {
				"attachment": [
					{ "time": 0, "name": null },
					{ "time": 0.1667, "name": null }
				]
			},
			"button_pink": {
				"attachment": [
					{ "time": 0, "name": null },
					{ "time": 0.1667, "name": null }
				]
			},
			"circle_back": {
				"attachment": [
					{ "time": 0, "name": null }
				]
			},
			"circle_back2": {
				"attachment": [
					{ "time": 0, "name": null }
				]
			},
			"circle_back3": {
				"attachment": [
					{ "time": 0, "name": null }
				]
			},
			"circle_back4": {
				"attachment": [
					{ "time": 0, "name": null }
				]
			},
			"circle_back5": {
				"attachment": [
					{ "time": 0, "name": null }
				]
			},
			"circle_back6": {
				"attachment": [
					{ "time": 0, "name": null }
				]
			},
			"circle_front": {
				"attachment": [
					{ "time": 0, "name": null }
				]
			},
			"circle_front2": {
				"attachment": [
					{ "time": 0, "name": null }
				]
			},
			"circle_front3": {
				"attachment": [
					{ "time": 0, "name": null }
				]
			},
			"circle_front4": {
				"attachment": [
					{ "time": 0, "name": null }
				]
			},
			"circle_front5": {
				"attachment": [
					{ "time": 0, "name": null }
				]
			},
			"circle_front6": {
				"attachment": [
					{ "time": 0, "name": null }
				]
			},
			"confirm_light_blue": {
				"color": [
					{ "time": 0, "color": "ffffff00" },
					{ "time": 0.1667, "color": "ffffffff" }
				]
			},
			"confirm_light_off": {
				"attachment": [
					{ "time": 0, "name": null },
					{ "time": 0.1667, "name": null }
				]
			},
			"confirm_light_off2": {
				"attachment": [
					{ "time": 0, "name": null },
					{ "time": 0.1667, "name": null }
				]
			},
			"confirm_light_pink": {
				"attachment": [
					{ "time": 0, "name": null },
					{ "time": 0.1667, "name": null }
				]
			},
			"elevator": {
				"attachment": [
					{ "time": 0, "name": null },
					{ "time": 0.1667, "name": null }
				]
			}
		}
	},
	"light_pink_on": {
		"slots": {
			"button_blue": {
				"attachment": [
					{ "time": 0, "name": null },
					{ "time": 0.1667, "name": null }
				]
			},
			"button_pink": {
				"attachment": [
					{ "time": 0, "name": null },
					{ "time": 0.1667, "name": null }
				]
			},
			"circle_back": {
				"attachment": [
					{ "time": 0, "name": null }
				]
			},
			"circle_back2": {
				"attachment": [
					{ "time": 0, "name": null }
				]
			},
			"circle_back3": {
				"attachment": [
					{ "time": 0, "name": null }
				]
			},
			"circle_back4": {
				"attachment": [
					{ "time": 0, "name": null }
				]
			},
			"circle_back5": {
				"attachment": [
					{ "time": 0, "name": null }
				]
			},
			"circle_back6": {
				"attachment": [
					{ "time": 0, "name": null }
				]
			},
			"circle_front": {
				"attachment": [
					{ "time": 0, "name": null }
				]
			},
			"circle_front2": {
				"attachment": [
					{ "time": 0, "name": null }
				]
			},
			"circle_front3": {
				"attachment": [
					{ "time": 0, "name": null }
				]
			},
			"circle_front4": {
				"attachment": [
					{ "time": 0, "name": null }
				]
			},
			"circle_front5": {
				"attachment": [
					{ "time": 0, "name": null }
				]
			},
			"circle_front6": {
				"attachment": [
					{ "time": 0, "name": null }
				]
			},
			"confirm_light_blue": {
				"attachment": [
					{ "time": 0, "name": null },
					{ "time": 0.1667, "name": null }
				]
			},
			"confirm_light_off": {
				"attachment": [
					{ "time": 0, "name": null },
					{ "time": 0.1667, "name": null }
				]
			},
			"confirm_light_off2": {
				"attachment": [
					{ "time": 0, "name": null },
					{ "time": 0.1667, "name": null }
				]
			},
			"confirm_light_pink": {
				"attachment": [
					{ "time": 0, "name": "confirm_light_pink" },
					{ "time": 0.1667, "name": "confirm_light_pink" }
				]
			},
			"elevator": {
				"attachment": [
					{ "time": 0, "name": null },
					{ "time": 0.1667, "name": null }
				]
			}
		}
	},
	"light_pink_switchoff": {
		"slots": {
			"button_blue": {
				"attachment": [
					{ "time": 0, "name": null },
					{ "time": 0.1667, "name": null }
				]
			},
			"button_pink": {
				"attachment": [
					{ "time": 0, "name": null },
					{ "time": 0.1667, "name": null }
				]
			},
			"circle_back": {
				"attachment": [
					{ "time": 0, "name": null },
					{ "time": 0.1667, "name": null }
				]
			},
			"circle_back2": {
				"attachment": [
					{ "time": 0, "name": null },
					{ "time": 0.1667, "name": null }
				]
			},
			"circle_back3": {
				"attachment": [
					{ "time": 0, "name": null },
					{ "time": 0.1667, "name": null }
				]
			},
			"circle_back4": {
				"attachment": [
					{ "time": 0, "name": null },
					{ "time": 0.1667, "name": null }
				]
			},
			"circle_back5": {
				"attachment": [
					{ "time": 0, "name": null },
					{ "time": 0.1667, "name": null }
				]
			},
			"circle_back6": {
				"attachment": [
					{ "time": 0, "name": null },
					{ "time": 0.1667, "name": null }
				]
			},
			"circle_front": {
				"attachment": [
					{ "time": 0, "name": null },
					{ "time": 0.1667, "name": null }
				]
			},
			"circle_front2": {
				"attachment": [
					{ "time": 0, "name": null },
					{ "time": 0.1667, "name": null }
				]
			},
			"circle_front3": {
				"attachment": [
					{ "time": 0, "name": null },
					{ "time": 0.1667, "name": null }
				]
			},
			"circle_front4": {
				"attachment": [
					{ "time": 0, "name": null },
					{ "time": 0.1667, "name": null }
				]
			},
			"circle_front5": {
				"attachment": [
					{ "time": 0, "name": null },
					{ "time": 0.1667, "name": null }
				]
			},
			"circle_front6": {
				"attachment": [
					{ "time": 0, "name": null },
					{ "time": 0.1667, "name": null }
				]
			},
			"confirm_light_blue": {
				"color": [
					{ "time": 0, "color": "ffffff00", "curve": "stepped" },
					{ "time": 0.1667, "color": "ffffff00" }
				],
				"attachment": [
					{ "time": 0, "name": null },
					{ "time": 0.1667, "name": null }
				]
			},
			"confirm_light_off": {
				"attachment": [
					{ "time": 0, "name": null },
					{ "time": 0.1667, "name": null }
				]
			},
			"confirm_light_off2": {
				"attachment": [
					{ "time": 0, "name": null },
					{ "time": 0.1667, "name": null }
				]
			},
			"confirm_light_pink": {
				"color": [
					{ "time": 0, "color": "ffffffff" },
					{ "time": 0.1667, "color": "ffffff00" }
				],
				"attachment": [
					{ "time": 0, "name": "confirm_light_pink" },
					{ "time": 0.1667, "name": "confirm_light_pink" }
				]
			},
			"elevator": {
				"attachment": [
					{ "time": 0, "name": null },
					{ "time": 0.1667, "name": null }
				]
			}
		}
	},
	"light_pink_switchon": {
		"slots": {
			"button_blue": {
				"attachment": [
					{ "time": 0, "name": null },
					{ "time": 0.1667, "name": null }
				]
			},
			"button_pink": {
				"attachment": [
					{ "time": 0, "name": null },
					{ "time": 0.1667, "name": null }
				]
			},
			"circle_back": {
				"attachment": [
					{ "time": 0, "name": null }
				]
			},
			"circle_back2": {
				"attachment": [
					{ "time": 0, "name": null }
				]
			},
			"circle_back3": {
				"attachment": [
					{ "time": 0, "name": null }
				]
			},
			"circle_back4": {
				"attachment": [
					{ "time": 0, "name": null }
				]
			},
			"circle_back5": {
				"attachment": [
					{ "time": 0, "name": null }
				]
			},
			"circle_back6": {
				"attachment": [
					{ "time": 0, "name": null }
				]
			},
			"circle_front": {
				"attachment": [
					{ "time": 0, "name": null }
				]
			},
			"circle_front2": {
				"attachment": [
					{ "time": 0, "name": null }
				]
			},
			"circle_front3": {
				"attachment": [
					{ "time": 0, "name": null }
				]
			},
			"circle_front4": {
				"attachment": [
					{ "time": 0, "name": null }
				]
			},
			"circle_front5": {
				"attachment": [
					{ "time": 0, "name": null }
				]
			},
			"circle_front6": {
				"attachment": [
					{ "time": 0, "name": null }
				]
			},
			"confirm_light_blue": {
				"color": [
					{ "time": 0, "color": "ffffff00" },
					{ "time": 0.1667, "color": "ffffffff" }
				],
				"attachment": [
					{ "time": 0, "name": null }
				]
			},
			"confirm_light_off": {
				"attachment": [
					{ "time": 0, "name": null },
					{ "time": 0.1667, "name": null }
				]
			},
			"confirm_light_off2": {
				"attachment": [
					{ "time": 0, "name": null },
					{ "time": 0.1667, "name": null }
				]
			},
			"confirm_light_pink": {
				"color": [
					{ "time": 0, "color": "ffffff00" },
					{ "time": 0.1667, "color": "ffffffff" }
				],
				"attachment": [
					{ "time": 0, "name": "confirm_light_pink" },
					{ "time": 0.1667, "name": null }
				]
			},
			"elevator": {
				"attachment": [
					{ "time": 0, "name": null },
					{ "time": 0.1667, "name": null }
				]
			}
		}
	}
}
}